(module C1206 (layer F.Cu) (tedit 0)
  (descr <b>CAPACITOR</b>)
  (fp_text reference C8 (at -1.27 -1.27) (layer F.SilkS)
    (effects (font (size 1.2065 1.2065) (thickness 0.1016)) (justify right top))
  )
  (fp_text value 0.47uF/6.3V (at -1.27 2.54) (layer F.Fab)
    (effects (font (size 1.2065 1.2065) (thickness 0.1016)) (justify right top))
  )
  (fp_line (start -2.473 -0.983) (end 2.473 -0.983) (layer Dwgs.User) (width 0.0508))
  (fp_line (start 2.473 0.983) (end -2.473 0.983) (layer Dwgs.User) (width 0.0508))
  (fp_line (start -2.473 0.983) (end -2.473 -0.983) (layer Dwgs.User) (width 0.0508))
  (fp_line (start 2.473 -0.983) (end 2.473 0.983) (layer Dwgs.User) (width 0.0508))
  (fp_line (start -0.965 -0.787) (end 0.965 -0.787) (layer F.Fab) (width 0.1016))
  (fp_line (start -0.965 0.787) (end 0.965 0.787) (layer F.Fab) (width 0.1016))
  (fp_poly (pts (xy -1.7018 0.8509) (xy -0.9517 0.8509) (xy -0.9517 -0.8491) (xy -1.7018 -0.8491)) (layer F.Fab) (width 0))
  (fp_poly (pts (xy 0.9517 0.8491) (xy 1.7018 0.8491) (xy 1.7018 -0.8509) (xy 0.9517 -0.8509)) (layer F.Fab) (width 0))
  (fp_poly (pts (xy -0.1999 0.4001) (xy 0.1999 0.4001) (xy 0.1999 -0.4001) (xy -0.1999 -0.4001)) (layer F.Adhes) (width 0))
  (pad 1 smd rect (at -1.4 0) (size 1.6 1.8) (layers F.Cu F.Paste F.Mask)
    (solder_mask_margin 0.1016))
  (pad 2 smd rect (at 1.4 0) (size 1.6 1.8) (layers F.Cu F.Paste F.Mask)
    (solder_mask_margin 0.1016))
)
