(module OSCILLATOR_7X5_SMD (layer F.Cu) (tedit 0)
  (descr "Oscillator 7.0 x 5.0 mm SMD Ceramic Package")
  (fp_text reference XTAL1 (at -3.81 -3.81) (layer F.SilkS)
    (effects (font (size 1.2065 1.2065) (thickness 0.127)) (justify right top))
  )
  (fp_text value ASV-OSCILLATOR (at -3.81 5.08) (layer F.Fab)
    (effects (font (size 1.2065 1.2065) (thickness 0.127)) (justify right top))
  )
  (fp_line (start 2.8025 -2.5) (end 3.5 -2.5) (layer Cmts.User) (width 0.1524))
  (fp_arc (start 2.54 -2.5) (end 2.2775 -2.5) (angle -90) (layer Cmts.User) (width 0.127))
  (fp_arc (start 2.54 -2.5) (end 2.54 -2.2375) (angle -90) (layer Cmts.User) (width 0.127))
  (fp_arc (start 2.4285 -1.668) (end 2.4285 -2.127) (angle 90) (layer Cmts.User) (width 0.0634))
  (fp_arc (start 2.2973 -1.5805) (end 2.2973 -2.0395) (angle 90) (layer Cmts.User) (width 0.0634))
  (fp_line (start 2.2775 -2.5) (end 1.5 -2.5) (layer Cmts.User) (width 0.1524))
  (fp_line (start 2.4285 -2.127) (end 1.5 -2.127) (layer Cmts.User) (width 0.0634))
  (fp_line (start 2.2973 -2.0395) (end 1.5 -2.0395) (layer Cmts.User) (width 0.0634))
  (fp_line (start 3.5 -0.96) (end 3.5 -2.5) (layer Cmts.User) (width 0.1524))
  (fp_line (start 2.8875 -0.96) (end 2.8875 -1.668) (layer Cmts.User) (width 0.0634))
  (fp_line (start 2.7563 -0.96) (end 2.7563 -1.5805) (layer Cmts.User) (width 0.0634))
  (fp_line (start -2.8025 2.5) (end -3.5 2.5) (layer Cmts.User) (width 0.1524))
  (fp_arc (start -2.539899 2.499899) (end -2.2775 2.5) (angle -90.043671) (layer Cmts.User) (width 0.127))
  (fp_arc (start -2.5401 2.499899) (end -2.54 2.2375) (angle -90.043671) (layer Cmts.User) (width 0.127))
  (fp_arc (start -2.4285 1.668) (end -2.4285 2.127) (angle 90) (layer Cmts.User) (width 0.0634))
  (fp_arc (start -2.2973 1.5805) (end -2.2973 2.0395) (angle 90) (layer Cmts.User) (width 0.0634))
  (fp_line (start -2.2775 2.5) (end -1.5 2.5) (layer Cmts.User) (width 0.1524))
  (fp_line (start -2.4285 2.127) (end -1.5 2.127) (layer Cmts.User) (width 0.0634))
  (fp_line (start -2.2973 2.0395) (end -1.5 2.0395) (layer Cmts.User) (width 0.0634))
  (fp_line (start -3.5 0.96) (end -3.5 2.5) (layer Cmts.User) (width 0.1524))
  (fp_line (start -2.8875 0.96) (end -2.8875 1.668) (layer Cmts.User) (width 0.0634))
  (fp_line (start -2.7563 0.96) (end -2.7563 1.5805) (layer Cmts.User) (width 0.0634))
  (fp_line (start -2.8025 -2.5) (end -3.5 -2.5) (layer Cmts.User) (width 0.1524))
  (fp_arc (start -2.539899 -2.499899) (end -2.2775 -2.5) (angle 90.043671) (layer Cmts.User) (width 0.127))
  (fp_arc (start -2.5401 -2.499899) (end -2.54 -2.2375) (angle 90.043671) (layer Cmts.User) (width 0.127))
  (fp_arc (start -2.4285 -1.668) (end -2.4285 -2.127) (angle -90) (layer Cmts.User) (width 0.0634))
  (fp_arc (start -2.2973 -1.5805) (end -2.2973 -2.0395) (angle -90) (layer Cmts.User) (width 0.0634))
  (fp_line (start -2.2775 -2.5) (end -1.5 -2.5) (layer Cmts.User) (width 0.1524))
  (fp_line (start -2.4285 -2.127) (end -1.5 -2.127) (layer Cmts.User) (width 0.0634))
  (fp_line (start -2.2973 -2.0395) (end -1.5 -2.0395) (layer Cmts.User) (width 0.0634))
  (fp_line (start -3.5 -0.96) (end -3.5 -2.5) (layer Cmts.User) (width 0.1524))
  (fp_line (start -2.8875 -0.96) (end -2.8875 -1.668) (layer Cmts.User) (width 0.0634))
  (fp_line (start -2.7563 -0.96) (end -2.7563 -1.5805) (layer Cmts.User) (width 0.0634))
  (fp_line (start 1.4 -2.5) (end -1.5 -2.5) (layer F.SilkS) (width 0.1524))
  (fp_line (start 1.4 -2.127) (end -1.5 -2.127) (layer F.SilkS) (width 0.0634))
  (fp_line (start 1.4 -2.0395) (end -1.5 -2.0395) (layer F.SilkS) (width 0.0634))
  (fp_line (start -2.7563 0.86) (end -2.7563 0.635) (layer F.SilkS) (width 0.0634))
  (fp_line (start -2.7563 0.635) (end -2.7563 -0.96) (layer F.SilkS) (width 0.0634))
  (fp_line (start -2.8875 0.86) (end -2.8875 -0.96) (layer F.SilkS) (width 0.0634))
  (fp_line (start -3.5 0.86) (end -3.5 -0.96) (layer F.SilkS) (width 0.1524))
  (fp_line (start 2.8025 2.5) (end 3.5 2.5) (layer Cmts.User) (width 0.1524))
  (fp_arc (start 2.539899 2.499899) (end 2.2775 2.5) (angle 90.043671) (layer Cmts.User) (width 0.127))
  (fp_arc (start 2.5401 2.499899) (end 2.54 2.2375) (angle 90.043671) (layer Cmts.User) (width 0.127))
  (fp_arc (start 2.4285 1.668) (end 2.4285 2.127) (angle -90) (layer Cmts.User) (width 0.0634))
  (fp_arc (start 2.2973 1.5805) (end 2.2973 2.0395) (angle -90) (layer Cmts.User) (width 0.0634))
  (fp_line (start 2.2775 2.5) (end 1.5 2.5) (layer Cmts.User) (width 0.1524))
  (fp_line (start 2.4285 2.127) (end 1.5 2.127) (layer Cmts.User) (width 0.0634))
  (fp_line (start 2.2973 2.0395) (end 1.5 2.0395) (layer Cmts.User) (width 0.0634))
  (fp_line (start 3.5 0.96) (end 3.5 2.5) (layer Cmts.User) (width 0.1524))
  (fp_line (start 2.8875 0.96) (end 2.8875 1.668) (layer Cmts.User) (width 0.0634))
  (fp_line (start 2.7563 0.96) (end 2.7563 1.5805) (layer Cmts.User) (width 0.0634))
  (fp_line (start -1.5 2.5) (end 1.4 2.5) (layer F.SilkS) (width 0.1524))
  (fp_line (start -1.5 2.127) (end 1.4 2.127) (layer F.SilkS) (width 0.0634))
  (fp_line (start -1.5 2.0395) (end -1.27 2.0395) (layer F.SilkS) (width 0.0634))
  (fp_line (start -1.27 2.0395) (end 1.4 2.0395) (layer F.SilkS) (width 0.0634))
  (fp_line (start 2.7563 -0.96) (end 2.7563 0.86) (layer F.SilkS) (width 0.0634))
  (fp_line (start 2.8875 -0.96) (end 2.8875 0.86) (layer F.SilkS) (width 0.0634))
  (fp_line (start 3.4 -0.96) (end 3.4 0.86) (layer F.SilkS) (width 0.1524))
  (fp_line (start -2.7563 0.635) (end -1.27 0.635) (layer F.SilkS) (width 0.0634))
  (fp_line (start -1.27 0.635) (end -1.27 2.0395) (layer F.SilkS) (width 0.0634))
  (fp_circle (center -2.1005 1.34) (end -1.9585 1.34) (layer Cmts.User) (width 0.284))
  (fp_poly (pts (xy 1.84 -2.5) (xy 2.2775 -2.5) (xy 2.312668 -2.36875) (xy 2.40875 -2.272668)
    (xy 2.54 -2.2375) (xy 2.67125 -2.272668) (xy 2.767332 -2.36875) (xy 2.8025 -2.5)
    (xy 3.24 -2.5) (xy 3.24 -1.5) (xy 1.84 -1.5)) (layer Cmts.User) (width 0))
  (fp_poly (pts (xy 1.84 2.5) (xy 2.2775 2.5) (xy 2.2775 2.499998) (xy 2.312639 2.368727)
    (xy 2.408729 2.272638) (xy 2.54 2.2375) (xy 2.540001 2.2375) (xy 2.671272 2.272639)
    (xy 2.767361 2.368729) (xy 2.8025 2.5) (xy 3.24 2.5) (xy 3.24 1.5)
    (xy 1.84 1.5)) (layer Cmts.User) (width 0))
  (fp_poly (pts (xy -1.84 2.5) (xy -2.2775 2.5) (xy -2.312668 2.36875) (xy -2.40875 2.272668)
    (xy -2.54 2.2375) (xy -2.67125 2.272668) (xy -2.8025 2.5) (xy -3.24 2.5)
    (xy -3.24 1.5) (xy -1.84 1.5)) (layer Cmts.User) (width 0))
  (fp_poly (pts (xy -1.84 -2.5) (xy -2.2775 -2.5) (xy -2.2775 -2.499998) (xy -2.312639 -2.368727)
    (xy -2.408729 -2.272638) (xy -2.54 -2.2375) (xy -2.540001 -2.2375) (xy -2.671272 -2.272639)
    (xy -2.767361 -2.368729) (xy -2.8025 -2.5) (xy -3.24 -2.5) (xy -3.24 -1.5)
    (xy -1.84 -1.5)) (layer Cmts.User) (width 0))
  (fp_poly (pts (xy 0 0) (xy 2.7563 0) (xy 2.7563 -1.5145) (xy 2.730605 -1.676734)
    (xy 2.656034 -1.823087) (xy 2.539887 -1.939234) (xy 2.2313 -2.0395) (xy 0 -2.0395)) (layer Cmts.User) (width 0))
  (fp_poly (pts (xy 0 0.635) (xy -2.7563 0.635) (xy -2.7563 -1.5145) (xy -2.730605 -1.676734)
    (xy -2.656034 -1.823087) (xy -2.539887 -1.939234) (xy -2.2313 -2.0395) (xy 0 -2.0395)) (layer Cmts.User) (width 0))
  (fp_poly (pts (xy -1.27 0) (xy 2.7563 0) (xy 2.7563 1.5145) (xy 2.730605 1.676734)
    (xy 2.656034 1.823087) (xy 2.539887 1.939234) (xy 2.2313 2.0395) (xy -1.27 2.0395)) (layer Cmts.User) (width 0))
  (fp_circle (center -4.1325 2.864) (end -3.9905 2.864) (layer F.SilkS) (width 0.284))
  (pad 1 smd rect (at -2.6 1.9 90) (size 1.8 2) (layers F.Cu F.Paste F.Mask)
    (solder_mask_margin 0.1016))
  (pad 4 smd rect (at -2.6 -2.1 90) (size 1.8 2) (layers F.Cu F.Paste F.Mask)
    (solder_mask_margin 0.1016))
  (pad 3 smd rect (at 2.5 -2.1 90) (size 1.8 2) (layers F.Cu F.Paste F.Mask)
    (solder_mask_margin 0.1016))
  (pad 2 smd rect (at 2.5 1.9 90) (size 1.8 2) (layers F.Cu F.Paste F.Mask)
    (solder_mask_margin 0.1016))
)
