(module SJ-43514-SMT (layer F.Cu) (tedit 0)
  (fp_text reference J4 (at -5.08 -6.912) (layer F.SilkS)
    (effects (font (size 0.77216 0.77216) (thickness 0.065024)) (justify left bottom))
  )
  (fp_text value SJ-43514-SMT (at -5.08 5.715) (layer F.Fab)
    (effects (font (size 0.77216 0.77216) (thickness 0.065024)) (justify left bottom))
  )
  (fp_line (start -5.4 -1.2) (end 7.6 -1.2) (layer F.SilkS) (width 0.03))
  (fp_line (start -5.9 1.6) (end -5.9 1.4) (layer F.SilkS) (width 0.127))
  (fp_line (start 8.5 -3.8) (end 0.5 -3.8) (layer F.SilkS) (width 0.127))
  (fp_line (start 0.5 -3.8) (end 0.5 -3.5) (layer F.SilkS) (width 0.127))
  (fp_line (start -5.9 -3.9) (end -5.9 1.4) (layer F.SilkS) (width 0.127))
  (fp_line (start -6 -3.4) (end -7.3 -3.4) (layer F.SilkS) (width 0.127))
  (fp_line (start -7.4 -3.4) (end -7.4 1.1) (layer F.SilkS) (width 0.127))
  (fp_line (start -7.4 1.1) (end -6 1.1) (layer F.SilkS) (width 0.127))
  (fp_line (start -1.1 -3.5) (end -1.1 -3.8) (layer F.Fab) (width 0.1016))
  (fp_line (start -1.1 -3.8) (end -1.1 -3.9) (layer F.Fab) (width 0.1016))
  (fp_line (start -1.1 -3.9) (end -1.1 -5.7) (layer F.Fab) (width 0.1016))
  (fp_line (start -1.1 -5.7) (end -0.1 -5.7) (layer F.Fab) (width 0.1016))
  (fp_line (start -0.1 -5.7) (end -0.1 -3.8) (layer F.Fab) (width 0.1016))
  (fp_line (start -0.1 -3.8) (end -0.1 -3.5) (layer F.Fab) (width 0.1016))
  (fp_line (start -3 1.1) (end -3 3.3) (layer F.Fab) (width 0.1016))
  (fp_line (start -3 3.3) (end -2 3.3) (layer F.Fab) (width 0.1016))
  (fp_line (start -2 3.3) (end -2 1.4) (layer F.Fab) (width 0.1016))
  (fp_line (start -2 1.4) (end -2 1.1) (layer F.Fab) (width 0.1016))
  (fp_line (start 6.15 1.1) (end 6.15 3.3) (layer F.Fab) (width 0.1016))
  (fp_line (start 7.65 1.1) (end 7.65 3.3) (layer F.Fab) (width 0.1016))
  (fp_line (start 6.2 3.3) (end 7.6 3.3) (layer F.Fab) (width 0.1016))
  (fp_line (start 8.5 -3.8) (end 8.4 -3.8) (layer F.Fab) (width 0.1016))
  (fp_line (start 8.4 -3.8) (end 0.5 -3.8) (layer F.Fab) (width 0.1016))
  (fp_line (start 0.5 -3.8) (end 0.5 -3.6) (layer F.Fab) (width 0.1016))
  (fp_line (start 0.5 -3.6) (end 0.5 -3.5) (layer F.Fab) (width 0.1016))
  (fp_line (start -0.1 -3.8) (end -0.1 -3.5) (layer F.Fab) (width 0.1016))
  (fp_line (start -5.9 -3.6) (end -5.9 -3.4) (layer F.Fab) (width 0.1016))
  (fp_line (start -5.9 -3.4) (end -5.9 1.1) (layer F.Fab) (width 0.1016))
  (fp_line (start -5.9 1.1) (end -5.9 1.3) (layer F.Fab) (width 0.1016))
  (fp_line (start -5.9 1.1) (end -7.2 1.1) (layer F.Fab) (width 0.1016))
  (fp_line (start -7.2 1.1) (end -7.4 0.9) (layer F.Fab) (width 0.1016))
  (fp_line (start -7.4 0.9) (end -7.4 -3.2) (layer F.Fab) (width 0.1016))
  (fp_line (start -7.4 -3.2) (end -7.2 -3.4) (layer F.Fab) (width 0.1016))
  (fp_line (start -7.2 -3.4) (end -5.9 -3.4) (layer F.Fab) (width 0.1016))
  (fp_line (start -7.2 -3.4) (end -7.2 1) (layer F.Fab) (width 0.1016))
  (fp_circle (center -1.4 -1.2) (end -0.65 -1.2) (layer F.Fab) (width 0.1016))
  (fp_circle (center 5.6 -1.2) (end 6.35 -1.2) (layer F.Fab) (width 0.1016))
  (fp_line (start -5.7 1.6) (end -5.7 2.9) (layer F.Fab) (width 0.0762))
  (fp_line (start -5.7 2.9) (end -4.9 2.9) (layer F.Fab) (width 0.0762))
  (fp_line (start -4.9 2.9) (end -4.9 1.6) (layer F.Fab) (width 0.0762))
  (fp_line (start -5.9 -3.9) (end -4.4 -3.9) (layer F.SilkS) (width 0.127))
  (fp_line (start -4.4 -3.9) (end -4.4 -3.5) (layer F.SilkS) (width 0.127))
  (fp_line (start -4.4 -3.5) (end -3.4 -3.5) (layer F.SilkS) (width 0.127))
  (fp_line (start -3.4 -3.5) (end -3.4 -3.9) (layer F.SilkS) (width 0.127))
  (fp_line (start -3.4 -3.9) (end -2.4 -3.9) (layer F.SilkS) (width 0.127))
  (fp_line (start -2.4 -3.9) (end -1.7 -3.9) (layer F.SilkS) (width 0.127))
  (fp_line (start -1.7 -3.9) (end -1.7 -3.5) (layer F.SilkS) (width 0.127))
  (fp_line (start -1.7 -3.5) (end 0.5 -3.5) (layer F.SilkS) (width 0.127))
  (fp_line (start 0.5 -3.5) (end 0.5 -3.8) (layer F.SilkS) (width 0.127))
  (fp_line (start 0.5 -3.8) (end 9.6 -3.8) (layer F.SilkS) (width 0.127))
  (fp_line (start 9.6 -3.8) (end 9.6 1.7) (layer F.SilkS) (width 0.127))
  (fp_line (start 9.6 1.7) (end 8.3 1.7) (layer F.SilkS) (width 0.127))
  (fp_line (start 8.3 1.7) (end 8.3 1.1) (layer F.SilkS) (width 0.127))
  (fp_line (start 8.3 1.1) (end 5.5 1.1) (layer F.SilkS) (width 0.127))
  (fp_line (start 5.5 1.1) (end 5.5 1.7) (layer F.SilkS) (width 0.127))
  (fp_line (start 5.5 1.7) (end 0.6 1.7) (layer F.SilkS) (width 0.127))
  (fp_line (start 0.6 1.7) (end 0.6 2) (layer F.SilkS) (width 0.127))
  (fp_line (start 0.6 2) (end -1.4 2) (layer F.SilkS) (width 0.127))
  (fp_line (start -1.4 2) (end -1.4 1.1) (layer F.SilkS) (width 0.127))
  (fp_line (start -1.4 1.1) (end -3.6 1.1) (layer F.SilkS) (width 0.127))
  (fp_line (start -3.6 1.1) (end -3.6 1.8) (layer F.SilkS) (width 0.127))
  (fp_line (start -3.6 1.8) (end -4.8 1.8) (layer F.SilkS) (width 0.127))
  (fp_line (start -4.8 1.8) (end -4.8 1.7) (layer F.SilkS) (width 0.127))
  (fp_line (start -4.8 1.7) (end -4.8 1.6) (layer F.SilkS) (width 0.127))
  (fp_line (start -4.8 1.6) (end -4.9 1.6) (layer F.SilkS) (width 0.127))
  (fp_line (start -4.9 1.6) (end -5.9 1.6) (layer F.SilkS) (width 0.127))
  (fp_line (start -5.9 1.3) (end -5.9 1.4) (layer F.Fab) (width 0.1016))
  (fp_line (start -5.9 1.4) (end -5.9 1.6) (layer F.Fab) (width 0.1016))
  (fp_line (start -5.9 1.6) (end -4.8 1.6) (layer F.Fab) (width 0.1016))
  (fp_line (start -4.8 1.6) (end -4.8 1.1) (layer F.Fab) (width 0.1016))
  (fp_line (start -4.8 1.1) (end -5.8 1.1) (layer F.Fab) (width 0.1016))
  (fp_line (start -5.8 1.1) (end -3.6 1.1) (layer F.Fab) (width 0.1016))
  (fp_line (start -3.6 1.1) (end -1.4 1.1) (layer F.Fab) (width 0.1016))
  (fp_line (start -5.9 1.3) (end -5.9 1.4) (layer F.Fab) (width 0.1016))
  (fp_line (start -5.9 1.4) (end -5.8 1.4) (layer F.Fab) (width 0.1016))
  (fp_line (start -5.8 1.4) (end -4 1.4) (layer F.Fab) (width 0.1016))
  (fp_line (start -4 1.4) (end -4 1.5) (layer F.Fab) (width 0.1016))
  (fp_line (start -4 1.5) (end -5.8 1.5) (layer F.Fab) (width 0.1016))
  (fp_line (start -5.8 1.5) (end -5.8 1.4) (layer F.Fab) (width 0.1016))
  (fp_line (start -5.8 1.4) (end -5.8 1.3) (layer F.Fab) (width 0.1016))
  (fp_line (start -5.8 1.3) (end -5.8 1.2) (layer F.Fab) (width 0.1016))
  (fp_line (start -5.8 1.2) (end -5.8 1.1) (layer F.Fab) (width 0.1016))
  (fp_line (start -4.8 1.6) (end -4 1.6) (layer F.Fab) (width 0.1016))
  (fp_line (start -4 1.6) (end -4 1.5) (layer F.Fab) (width 0.1016))
  (fp_line (start -4 1.5) (end -4 1.8) (layer F.Fab) (width 0.1016))
  (fp_line (start -4 1.8) (end -4.8 1.8) (layer F.Fab) (width 0.1016))
  (fp_line (start -4.8 1.8) (end -4.8 1.6) (layer F.Fab) (width 0.1016))
  (fp_line (start -4.8 1.6) (end -4.8 1.7) (layer F.Fab) (width 0.1016))
  (fp_line (start -4.8 1.7) (end -4.1 1.7) (layer F.Fab) (width 0.1016))
  (fp_line (start -4.1 1.7) (end -4 1.7) (layer F.Fab) (width 0.1016))
  (fp_line (start -4 1.7) (end -4 1.8) (layer F.Fab) (width 0.1016))
  (fp_line (start -1.4 1.2) (end -1.4 2) (layer F.Fab) (width 0.1016))
  (fp_line (start -1.4 2) (end 0.6 2) (layer F.Fab) (width 0.1016))
  (fp_line (start 0.6 2) (end 0.6 1.7) (layer F.Fab) (width 0.1016))
  (fp_line (start 0.6 1.7) (end 5.5 1.7) (layer F.Fab) (width 0.1016))
  (fp_line (start 5.5 1.7) (end 5.5 1.6) (layer F.Fab) (width 0.1016))
  (fp_line (start 5.5 1.6) (end 5.5 1.4) (layer F.Fab) (width 0.1016))
  (fp_line (start 5.5 1.4) (end 5.5 1.2) (layer F.Fab) (width 0.1016))
  (fp_line (start 5.5 1.2) (end 5.5 1.1) (layer F.Fab) (width 0.1016))
  (fp_line (start 5.5 1.1) (end 8.3 1.1) (layer F.Fab) (width 0.1016))
  (fp_line (start 8.3 1.1) (end 8.3 1.3) (layer F.Fab) (width 0.1016))
  (fp_line (start 8.3 1.3) (end 8.3 1.5) (layer F.Fab) (width 0.1016))
  (fp_line (start 8.3 1.5) (end 8.3 1.7) (layer F.Fab) (width 0.1016))
  (fp_line (start 8.3 1.7) (end 8.4 1.7) (layer F.Fab) (width 0.1016))
  (fp_line (start 8.4 1.7) (end 8.5 1.7) (layer F.Fab) (width 0.1016))
  (fp_line (start 8.5 1.7) (end 9.6 1.7) (layer F.Fab) (width 0.1016))
  (fp_line (start 9.6 1.7) (end 9.6 -3.8) (layer F.Fab) (width 0.1016))
  (fp_line (start 9.6 -3.8) (end 8.4 -3.8) (layer F.Fab) (width 0.1016))
  (fp_line (start 0.5 -3.5) (end -1.7 -3.5) (layer F.Fab) (width 0.1016))
  (fp_line (start -1.7 -3.5) (end -1.7 -3.7) (layer F.Fab) (width 0.1016))
  (fp_line (start -1.7 -3.7) (end -1.7 -3.8) (layer F.Fab) (width 0.1016))
  (fp_line (start -1.7 -3.8) (end -1.7 -3.9) (layer F.Fab) (width 0.1016))
  (fp_line (start -1.7 -3.9) (end -2.4 -3.9) (layer F.Fab) (width 0.1016))
  (fp_line (start -2.4 -3.9) (end -3.4 -3.9) (layer F.Fab) (width 0.1016))
  (fp_line (start -3.4 -3.9) (end -3.4 -3.6) (layer F.Fab) (width 0.1016))
  (fp_line (start -3.4 -3.6) (end -3.4 -3.5) (layer F.Fab) (width 0.1016))
  (fp_line (start -3.4 -3.5) (end -3.8 -3.5) (layer F.Fab) (width 0.1016))
  (fp_line (start -3.8 -3.5) (end -4.4 -3.5) (layer F.Fab) (width 0.1016))
  (fp_line (start -4.4 -3.5) (end -4.4 -3.6) (layer F.Fab) (width 0.1016))
  (fp_line (start -4.4 -3.6) (end -4.4 -3.7) (layer F.Fab) (width 0.1016))
  (fp_line (start -4.4 -3.7) (end -4.4 -3.9) (layer F.Fab) (width 0.1016))
  (fp_line (start -4.4 -3.9) (end -5.9 -3.9) (layer F.Fab) (width 0.1016))
  (fp_line (start -5.9 -3.9) (end -5.9 -3.6) (layer F.Fab) (width 0.1016))
  (fp_line (start -4.4 -3.7) (end -4.4 -3.6) (layer F.Fab) (width 0.1016))
  (fp_line (start -3.8 -3.5) (end -3.4 -3.5) (layer F.Fab) (width 0.1016))
  (fp_line (start -1.1 -3.9) (end -1.1 -3.8) (layer F.Fab) (width 0.1016))
  (fp_line (start -1.7 -3.8) (end -1.7 -3.7) (layer F.Fab) (width 0.1016))
  (fp_line (start -1.6 -3.6) (end -1.5 -3.7) (layer F.Fab) (width 0.1016))
  (fp_line (start -1.5 -3.7) (end 0.3 -3.7) (layer F.Fab) (width 0.1016))
  (fp_line (start -3.6 1.1) (end -3.4 1.3) (layer F.Fab) (width 0.1016))
  (fp_line (start -3.4 1.3) (end -1.6 1.3) (layer F.Fab) (width 0.1016))
  (fp_line (start -1.6 1.3) (end -1.5 1.2) (layer F.Fab) (width 0.1016))
  (fp_line (start -1.5 1.2) (end -3.4 1.2) (layer F.Fab) (width 0.1016))
  (fp_line (start 5.6 1.7) (end 8.3 1.7) (layer F.Fab) (width 0.1016))
  (fp_line (start 8.3 1.7) (end 8.2 1.6) (layer F.Fab) (width 0.1016))
  (fp_line (start 8.2 1.6) (end 5.5 1.6) (layer F.Fab) (width 0.1016))
  (fp_line (start 5.5 1.6) (end 5.6 1.5) (layer F.Fab) (width 0.1016))
  (fp_line (start 5.6 1.5) (end 8.2 1.5) (layer F.Fab) (width 0.1016))
  (fp_line (start 8.2 1.5) (end 8.3 1.5) (layer F.Fab) (width 0.1016))
  (fp_line (start 8.3 1.5) (end 8.2 1.4) (layer F.Fab) (width 0.1016))
  (fp_line (start 8.2 1.4) (end 5.6 1.4) (layer F.Fab) (width 0.1016))
  (fp_line (start 5.6 1.4) (end 5.5 1.4) (layer F.Fab) (width 0.1016))
  (fp_line (start 5.5 1.4) (end 5.6 1.3) (layer F.Fab) (width 0.1016))
  (fp_line (start 5.6 1.3) (end 8.3 1.3) (layer F.Fab) (width 0.1016))
  (fp_line (start 8.3 1.3) (end 8.2 1.2) (layer F.Fab) (width 0.1016))
  (fp_line (start 8.2 1.2) (end 5.5 1.2) (layer F.Fab) (width 0.1016))
  (fp_line (start 5.5 1.2) (end 5.6 1.3) (layer F.Fab) (width 0.1016))
  (fp_line (start 5.6 1.3) (end 5.6 1.7) (layer F.Fab) (width 0.1016))
  (fp_line (start 5.6 1.7) (end 5.5 1.7) (layer F.Fab) (width 0.1016))
  (fp_line (start 5.5 1.7) (end 8.5 1.7) (layer F.Fab) (width 0.1016))
  (fp_line (start -4 1.2) (end -4 1.3) (layer F.Fab) (width 0.1016))
  (fp_line (start -4 1.3) (end -4 1.4) (layer F.Fab) (width 0.1016))
  (fp_line (start -4 1.4) (end -4 1.3) (layer F.Fab) (width 0.1016))
  (fp_line (start -4 1.3) (end -4 1.2) (layer F.Fab) (width 0.1016))
  (fp_line (start -4 1.2) (end -5.8 1.2) (layer F.Fab) (width 0.1016))
  (fp_line (start -5.8 1.4) (end -5.8 1.3) (layer F.Fab) (width 0.1016))
  (fp_line (start -5.8 1.3) (end -4 1.3) (layer F.Fab) (width 0.1016))
  (fp_line (start -3.6 1.2) (end -3.6 1.8) (layer F.Fab) (width 0.127))
  (fp_line (start -3.6 1.8) (end -4 1.8) (layer F.Fab) (width 0.127))
  (fp_line (start -4 1.8) (end -4 1.2) (layer F.Fab) (width 0.127))
  (fp_line (start -4 1.2) (end -3.6 1.2) (layer F.Fab) (width 0.127))
  (fp_line (start -3.6 1.2) (end -3.7 1.2) (layer F.Fab) (width 0.127))
  (fp_line (start -3.7 1.2) (end -3.7 1.7) (layer F.Fab) (width 0.127))
  (fp_line (start -3.7 1.7) (end -3.8 1.7) (layer F.Fab) (width 0.127))
  (fp_line (start -3.8 1.7) (end -3.8 1.3) (layer F.Fab) (width 0.127))
  (fp_line (start -3.8 1.3) (end -3.9 1.3) (layer F.Fab) (width 0.127))
  (fp_line (start -3.9 1.3) (end -3.9 1.7) (layer F.Fab) (width 0.127))
  (fp_line (start 0.4 -3.6) (end 0.3 -3.7) (layer F.Fab) (width 0.1016))
  (fp_line (start -1.6 -3.6) (end 0.4 -3.6) (layer F.Fab) (width 0.1016))
  (pad R1_3 smd rect (at -0.6 -4.9) (size 2.2 2.8) (layers F.Cu F.Paste F.Mask)
    (solder_mask_margin 0.1016))
  (pad R2_4 smd rect (at -2.5 2.5) (size 2.2 2.8) (layers F.Cu F.Paste F.Mask)
    (solder_mask_margin 0.1016))
  (pad T_2 smd rect (at 6.9 2.5) (size 2.8 2.8) (layers F.Cu F.Paste F.Mask)
    (solder_mask_margin 0.1016))
  (pad S_1 smd rect (at -5.3 2.5 180) (size 2 2.8) (layers F.Cu F.Paste F.Mask)
    (solder_mask_margin 0.1016))
  (pad "" np_thru_hole circle (at 5.6 -1.2) (size 1.7 1.7) (drill 1.7) (layers *.Cu *.Mask))
  (pad "" np_thru_hole circle (at -1.4 -1.2) (size 1.7 1.7) (drill 1.7) (layers *.Cu *.Mask))
)
