EESchema Schematic File Version 4
LIBS:AudioSense-Pi-cache
EELAYER 30 0
EELAYER END
$Descr User 17703 10392
encoding utf-8
Sheet 1 1
Title "AudioSense-Pi"
Date "2019-08-15"
Rev "1.0"
Comp ""
Comment1 ""
Comment2 ""
Comment3 ""
Comment4 ""
$EndDescr
Wire Wire Line
	7800 1200 7800 3100
Wire Wire Line
	7000 1300 7000 1200
Wire Wire Line
	7000 1200 7400 1200
Wire Wire Line
	7400 1200 7400 1300
Wire Wire Line
	7800 1200 7400 1200
Connection ~ 7400 1200
Wire Wire Line
	8400 1200 8700 1200
Wire Wire Line
	8700 1300 8700 1200
Wire Wire Line
	8700 1200 9100 1200
Wire Wire Line
	9100 1200 9100 1300
Wire Wire Line
	8400 1200 8400 3100
Connection ~ 8700 1200
Wire Wire Line
	4300 5700 4800 5700
Wire Wire Line
	4800 5700 4800 4400
Wire Wire Line
	3400 3400 3500 3400
Wire Wire Line
	3100 3600 3400 3600
Wire Wire Line
	3400 3600 3400 3400
Wire Wire Line
	2570 5000 3300 5000
Text Label 2935 5000 0    70   ~ 0
L
Wire Wire Line
	2570 5300 3300 5300
Text Label 2935 5300 0    70   ~ 0
R
Wire Wire Line
	2450 6500 3000 6500
Wire Wire Line
	3000 6500 3700 6500
Wire Wire Line
	3000 7000 3000 6500
Connection ~ 3000 6500
Wire Wire Line
	3400 6800 3700 6800
Wire Wire Line
	3400 7000 3400 6800
Wire Wire Line
	4100 6500 4500 6500
Wire Wire Line
	4100 6800 4500 6800
Wire Wire Line
	6400 6500 6400 6300
Wire Wire Line
	6400 6300 6800 6300
Wire Wire Line
	6800 6500 6800 6300
Wire Wire Line
	6800 6300 6900 6300
Connection ~ 6800 6300
Wire Wire Line
	8250 8050 8700 8050
Wire Wire Line
	8500 2200 8500 3100
Wire Wire Line
	8700 2300 8700 2200
Wire Wire Line
	8700 2200 9100 2200
Wire Wire Line
	9100 2200 9100 2300
Wire Wire Line
	8500 2200 8700 2200
Wire Wire Line
	9100 2200 9600 2200
Connection ~ 8700 2200
Connection ~ 9100 2200
Wire Wire Line
	10700 6700 10700 6800
Wire Wire Line
	11000 6700 10700 6700
Connection ~ 10700 6700
Wire Wire Line
	10600 4200 11800 4200
Wire Wire Line
	11800 4200 11800 3000
Wire Wire Line
	11800 3000 14800 3000
Wire Wire Line
	14800 3000 14800 4400
Wire Wire Line
	14800 4400 14400 4400
Wire Wire Line
	10600 4300 11900 4300
Wire Wire Line
	11900 4300 11900 3100
Wire Wire Line
	11900 3100 15000 3100
Wire Wire Line
	15000 3100 15000 4600
Wire Wire Line
	15000 4600 14400 4600
Wire Wire Line
	10600 4400 12000 4400
Wire Wire Line
	12000 4400 12000 3200
Wire Wire Line
	12000 3200 14900 3200
Wire Wire Line
	14900 3200 14900 4500
Wire Wire Line
	14900 4500 14400 4500
Wire Wire Line
	12950 4800 13200 4800
Wire Wire Line
	10600 4100 12950 4100
Wire Wire Line
	12950 4100 12950 4800
Wire Wire Line
	2600 3100 3500 3100
Wire Wire Line
	3500 2900 2600 2900
Wire Wire Line
	2600 2900 2600 3100
Connection ~ 2600 3100
Wire Wire Line
	2570 5500 3450 5500
Wire Wire Line
	3450 5500 3925 5500
Wire Wire Line
	3900 5700 3450 5700
Wire Wire Line
	3450 5700 3450 5500
Connection ~ 3450 5500
Text Label 2900 5500 0    70   ~ 0
M
Wire Wire Line
	14600 5600 14600 6050
Wire Wire Line
	14600 5600 14400 5600
Wire Wire Line
	14400 5200 14600 5200
Wire Wire Line
	14600 5200 14600 5600
Wire Wire Line
	14400 5300 14600 5300
Wire Wire Line
	14600 5300 14600 5600
Wire Wire Line
	14400 5400 14600 5400
Wire Wire Line
	14600 5400 14600 5600
Wire Wire Line
	14400 5500 14600 5500
Wire Wire Line
	14600 5500 14600 5600
Wire Wire Line
	14400 4900 14600 4900
Wire Wire Line
	14600 4900 14600 5600
Wire Wire Line
	14400 5000 14600 5000
Wire Wire Line
	14600 5000 14600 5600
Wire Wire Line
	14400 5100 14600 5100
Wire Wire Line
	14600 5100 14600 5600
Connection ~ 14600 5600
Wire Wire Line
	7900 8650 7400 8650
Wire Wire Line
	7400 8650 7400 8750
Wire Wire Line
	10700 7300 10700 7200
Wire Wire Line
	10700 7200 10700 7100
Wire Wire Line
	12000 6900 12100 6900
Wire Wire Line
	12100 6900 12100 7200
Wire Wire Line
	12100 7200 10700 7200
Connection ~ 10700 7200
Wire Wire Line
	7000 1600 7000 1700
Wire Wire Line
	7000 1700 7000 1800
Wire Wire Line
	7400 1700 7400 1600
Wire Wire Line
	7400 1700 7000 1700
Connection ~ 7000 1700
Wire Wire Line
	7000 2800 7000 2700
Wire Wire Line
	7000 2700 7000 2600
Wire Wire Line
	7400 2600 7400 2700
Wire Wire Line
	7400 2700 7000 2700
Connection ~ 7000 2700
Wire Wire Line
	9450 6650 9450 6600
Wire Wire Line
	10900 3200 10900 3000
Wire Wire Line
	10900 3000 11300 3000
Wire Wire Line
	11300 3000 11300 3200
Wire Wire Line
	7700 7200 7700 7100
Wire Wire Line
	8700 8650 8700 8750
Wire Wire Line
	6400 6800 6400 6900
Wire Wire Line
	6400 6900 6800 6900
Wire Wire Line
	6800 6900 6800 6800
Wire Wire Line
	6800 6900 6800 7000
Connection ~ 6800 6900
Wire Wire Line
	3000 7300 3000 7500
Wire Wire Line
	3400 7300 3400 7500
Wire Wire Line
	3400 7500 3000 7500
Wire Wire Line
	3000 7500 3000 7600
Connection ~ 3000 7500
Wire Wire Line
	2600 6900 2600 7000
Wire Wire Line
	2570 5400 3000 5400
Wire Wire Line
	3000 5400 3000 5800
Wire Wire Line
	2600 3500 2600 3600
Wire Wire Line
	2600 3600 2600 3700
Wire Wire Line
	2600 3600 2700 3600
Connection ~ 2600 3600
Wire Wire Line
	2700 2500 2700 2600
Wire Wire Line
	9100 1800 9100 1700
Wire Wire Line
	9100 1700 9100 1600
Wire Wire Line
	8700 1600 8700 1700
Wire Wire Line
	8700 1700 9100 1700
Connection ~ 9100 1700
Wire Wire Line
	9100 2800 9100 2700
Wire Wire Line
	9100 2700 9100 2600
Wire Wire Line
	8700 2600 8700 2700
Wire Wire Line
	8700 2700 9100 2700
Connection ~ 9100 2700
Wire Wire Line
	8500 7200 8500 7100
Wire Wire Line
	9300 4100 10200 4100
Wire Wire Line
	5400 4400 5500 4400
Wire Wire Line
	5500 4400 6900 4400
Wire Wire Line
	5400 4300 5500 4300
Wire Wire Line
	5500 4300 5500 4400
Connection ~ 5500 4400
Wire Wire Line
	9300 4200 10200 4200
Wire Wire Line
	10200 4300 9300 4300
Wire Wire Line
	9300 4400 10200 4400
Wire Wire Line
	6900 6000 6800 6000
Wire Wire Line
	9450 5600 9300 5600
Wire Wire Line
	9300 3800 10200 3800
Wire Wire Line
	12100 4800 12100 6700
Wire Wire Line
	12100 6700 12000 6700
Wire Wire Line
	10600 4800 12100 4800
Wire Wire Line
	9300 4800 10200 4800
Wire Wire Line
	6800 5900 6900 5900
Wire Wire Line
	5900 3700 6900 3700
Wire Wire Line
	5800 3800 6900 3800
Wire Wire Line
	5700 4000 6900 4000
Wire Wire Line
	5600 4100 6900 4100
Wire Wire Line
	4225 5500 5700 5500
Wire Wire Line
	5700 5500 5700 4500
Wire Wire Line
	5700 4500 6900 4500
Wire Wire Line
	3700 5300 5600 5300
Wire Wire Line
	5600 5300 5600 5100
Wire Wire Line
	5600 5100 6900 5100
Wire Wire Line
	4800 6500 5900 6500
Wire Wire Line
	4800 6800 6000 6800
Wire Wire Line
	9300 6000 9450 6000
Wire Wire Line
	9450 6000 9450 6200
Wire Wire Line
	9300 5800 12425 5800
Wire Wire Line
	12425 5800 12425 3400
Wire Wire Line
	12425 3400 13200 3400
Wire Wire Line
	9300 5700 12550 5700
Wire Wire Line
	12550 5700 12550 3500
Wire Wire Line
	12550 3500 13200 3500
Wire Wire Line
	10600 3800 10900 3800
Wire Wire Line
	10900 3800 11700 3800
Wire Wire Line
	10900 3600 10900 3800
Connection ~ 10900 3800
Wire Wire Line
	3900 2900 4800 2900
Wire Wire Line
	4800 2900 4800 4300
Wire Wire Line
	6800 4600 6900 4600
Wire Wire Line
	7000 2300 7000 2200
Wire Wire Line
	7000 2200 7400 2200
Wire Wire Line
	7400 2300 7400 2200
Wire Wire Line
	7700 2200 7700 3100
Wire Wire Line
	7400 2200 7700 2200
Wire Wire Line
	6500 2000 6500 2200
Wire Wire Line
	6500 2200 7000 2200
Connection ~ 7400 2200
Connection ~ 7000 2200
Wire Wire Line
	15200 3700 14400 3700
Wire Wire Line
	7850 8050 7400 8050
Wire Wire Line
	10800 1300 10800 1400
Wire Wire Line
	6300 5800 6300 5900
Wire Wire Line
	6300 5900 6400 5900
$Comp
L AudioSense-Pi-eagle-import:C-EUC1206 C14
U 1 1 8EF3DC60
P 7000 1400
F 0 "C14" H 7060 1415 59  0000 L BNN
F 1 "10uF" H 7060 1215 59  0000 L BNN
F 2 "Capacitor_SMD:C_0805_2012Metric_Pad1.15x1.40mm_HandSolder" H 7000 1400 50  0001 C CNN
F 3 "" H 7000 1400 50  0001 C CNN
F 4 "CAP CER 10UF 16V X7R 1206 " H 7000 1400 59  0001 L BNN "DESCRIPTION"
F 5 "Kemet" H 7000 1400 59  0001 L BNN "MANUFACTURER"
F 6 "C1206C106J4RACTU " H 7000 1400 59  0001 L BNN "MANUFACTURER_PART_NUMBER"
F 7 "1206" H 7000 1400 59  0001 L BNN "PACKAGE"
	1    7000 1400
	1    0    0    -1  
$EndComp
$Comp
L AudioSense-Pi-eagle-import:C-EUC1206 C20
U 1 1 EDA6B4AC
P 9100 1400
F 0 "C20" H 9160 1415 59  0000 L BNN
F 1 "10uF" H 9160 1215 59  0000 L BNN
F 2 "Capacitor_SMD:C_0805_2012Metric_Pad1.15x1.40mm_HandSolder" H 9100 1400 50  0001 C CNN
F 3 "" H 9100 1400 50  0001 C CNN
F 4 "CAP CER 10UF 16V X7R 1206 " H 9100 1400 59  0001 L BNN "DESCRIPTION"
F 5 "Kemet" H 9100 1400 59  0001 L BNN "MANUFACTURER"
F 6 "C1206C106J4RACTU " H 9100 1400 59  0001 L BNN "MANUFACTURER_PART_NUMBER"
F 7 "1206" H 9100 1400 59  0001 L BNN "PACKAGE"
	1    9100 1400
	1    0    0    -1  
$EndComp
$Comp
L AudioSense-Pi-eagle-import:C-EUC1206 C15
U 1 1 6D32BC26
P 7000 2400
F 0 "C15" H 7060 2415 59  0000 L BNN
F 1 "10uF" H 7060 2215 59  0000 L BNN
F 2 "Capacitor_SMD:C_0805_2012Metric_Pad1.15x1.40mm_HandSolder" H 7000 2400 50  0001 C CNN
F 3 "" H 7000 2400 50  0001 C CNN
F 4 "CAP CER 10UF 16V X7R 1206 " H 7000 2400 59  0001 L BNN "DESCRIPTION"
F 5 "Kemet" H 7000 2400 59  0001 L BNN "MANUFACTURER"
F 6 "C1206C106J4RACTU " H 7000 2400 59  0001 L BNN "MANUFACTURER_PART_NUMBER"
F 7 "1206" H 7000 2400 59  0001 L BNN "PACKAGE"
	1    7000 2400
	1    0    0    -1  
$EndComp
$Comp
L AudioSense-Pi-eagle-import:C-EUC1206 C21
U 1 1 F92D7098
P 9100 2400
F 0 "C21" H 9160 2415 59  0000 L BNN
F 1 "10uF" H 9160 2215 59  0000 L BNN
F 2 "Capacitor_SMD:C_0805_2012Metric_Pad1.15x1.40mm_HandSolder" H 9100 2400 50  0001 C CNN
F 3 "" H 9100 2400 50  0001 C CNN
F 4 "CAP CER 10UF 16V X7R 1206 " H 9100 2400 59  0001 L BNN "DESCRIPTION"
F 5 "Kemet" H 9100 2400 59  0001 L BNN "MANUFACTURER"
F 6 "C1206C106J4RACTU " H 9100 2400 59  0001 L BNN "MANUFACTURER_PART_NUMBER"
F 7 "1206" H 9100 2400 59  0001 L BNN "PACKAGE"
	1    9100 2400
	1    0    0    -1  
$EndComp
$Comp
L AudioSense-Pi-eagle-import:C-EUC1206 C16
U 1 1 32427EB1
P 7400 1400
F 0 "C16" H 7460 1415 59  0000 L BNN
F 1 "0.1uF" H 7460 1215 59  0000 L BNN
F 2 "Capacitor_SMD:C_0805_2012Metric_Pad1.15x1.40mm_HandSolder" H 7400 1400 50  0001 C CNN
F 3 "" H 7400 1400 50  0001 C CNN
F 4 "CAP CER 0.1UF 16V X7R 1206 " H 7400 1400 59  0001 L BNN "DESCRIPTION"
F 5 "Kemet" H 7400 1400 59  0001 L BNN "MANUFACTURER"
F 6 "C1206C104K4RACTU " H 7400 1400 59  0001 L BNN "MANUFACTURER_PART_NUMBER"
F 7 "1206" H 7400 1400 59  0001 L BNN "PACKAGE"
	1    7400 1400
	1    0    0    -1  
$EndComp
$Comp
L AudioSense-Pi-eagle-import:C-EUC1206 C17
U 1 1 E877986F
P 7400 2400
F 0 "C17" H 7460 2415 59  0000 L BNN
F 1 "0.1uF" H 7460 2215 59  0000 L BNN
F 2 "Capacitor_SMD:C_0805_2012Metric_Pad1.15x1.40mm_HandSolder" H 7400 2400 50  0001 C CNN
F 3 "" H 7400 2400 50  0001 C CNN
F 4 "CAP CER 0.1UF 16V X7R 1206 " H 7400 2400 59  0001 L BNN "DESCRIPTION"
F 5 "Kemet" H 7400 2400 59  0001 L BNN "MANUFACTURER"
F 6 "C1206C104K4RACTU " H 7400 2400 59  0001 L BNN "MANUFACTURER_PART_NUMBER"
F 7 "1206" H 7400 2400 59  0001 L BNN "PACKAGE"
	1    7400 2400
	1    0    0    -1  
$EndComp
$Comp
L AudioSense-Pi-eagle-import:C-EUC1206 C19
U 1 1 8DCD6BD8
P 8700 2400
F 0 "C19" H 8760 2415 59  0000 L BNN
F 1 "0.1uF" H 8760 2215 59  0000 L BNN
F 2 "Capacitor_SMD:C_0805_2012Metric_Pad1.15x1.40mm_HandSolder" H 8700 2400 50  0001 C CNN
F 3 "" H 8700 2400 50  0001 C CNN
F 4 "CAP CER 0.1UF 16V X7R 1206 " H 8700 2400 59  0001 L BNN "DESCRIPTION"
F 5 "Kemet" H 8700 2400 59  0001 L BNN "MANUFACTURER"
F 6 "C1206C104K4RACTU " H 8700 2400 59  0001 L BNN "MANUFACTURER_PART_NUMBER"
F 7 "1206" H 8700 2400 59  0001 L BNN "PACKAGE"
	1    8700 2400
	1    0    0    -1  
$EndComp
$Comp
L AudioSense-Pi-eagle-import:C-EUC1206 C18
U 1 1 82F3EB32
P 8700 1400
F 0 "C18" H 8760 1415 59  0000 L BNN
F 1 "0.1uF" H 8760 1215 59  0000 L BNN
F 2 "Capacitor_SMD:C_0805_2012Metric_Pad1.15x1.40mm_HandSolder" H 8700 1400 50  0001 C CNN
F 3 "" H 8700 1400 50  0001 C CNN
F 4 "CAP CER 0.1UF 16V X7R 1206 " H 8700 1400 59  0001 L BNN "DESCRIPTION"
F 5 "Kemet" H 8700 1400 59  0001 L BNN "MANUFACTURER"
F 6 "C1206C104K4RACTU " H 8700 1400 59  0001 L BNN "MANUFACTURER_PART_NUMBER"
F 7 "1206" H 8700 1400 59  0001 L BNN "PACKAGE"
	1    8700 1400
	1    0    0    -1  
$EndComp
$Comp
L AudioSense-Pi-eagle-import:C-EUC1206 C7
U 1 1 976083CF
P 3700 2100
F 0 "C7" V 3800 2135 59  0000 L BNN
F 1 "0.47uF/6.3V" V 3760 1915 59  0000 R TNN
F 2 "Capacitor_SMD:C_0805_2012Metric_Pad1.15x1.40mm_HandSolder" H 3700 2100 50  0001 C CNN
F 3 "" H 3700 2100 50  0001 C CNN
F 4 "CAP CER 0.47UF 16V X7R 1206 " V 3700 2100 59  0001 R TNN "DESCRIPTION"
F 5 "Yageo " V 3700 2100 59  0001 R TNN "MANUFACTURER"
F 6 "CC1206KRX7R7BB474 " V 3700 2100 59  0001 R TNN "MANUFACTURER_PART_NUMBER"
F 7 "1206" V 3700 2100 59  0001 R TNN "PACKAGE"
	1    3700 2100
	0    -1   -1   0   
$EndComp
$Comp
L AudioSense-Pi-eagle-import:RESISTOR1206 R15
U 1 1 8104E241
P 10900 3400
F 0 "R15" V 10750 3459 70  0000 L BNN
F 1 "10k" V 11050 3470 70  0000 L BNN
F 2 "Resistor_SMD:R_0805_2012Metric_Pad1.15x1.40mm_HandSolder" H 10900 3400 50  0001 C CNN
F 3 "" H 10900 3400 50  0001 C CNN
F 4 "RES SMD 10K OHM 1% 1/4W 1206 " V 10900 3400 70  0001 R TNN "DESCRIPTION"
F 5 "Yageo" V 10900 3400 70  0001 R TNN "MANUFACTURER"
F 6 "RC1206FR-0710KP " V 10900 3400 70  0001 R TNN "MANUFACTURER_PART_NUMBER"
F 7 "1206" V 10900 3400 70  0001 R TNN "PACKAGE"
	1    10900 3400
	0    -1   -1   0   
$EndComp
$Comp
L AudioSense-Pi-eagle-import:RESISTOR1206 R3
U 1 1 61457DAF
P 3900 6500
F 0 "R3" H 3554 6519 70  0000 L BNN
F 1 "100E" H 4090 6530 70  0000 L BNN
F 2 "Resistor_SMD:R_0805_2012Metric_Pad1.15x1.40mm_HandSolder" H 3900 6500 50  0001 C CNN
F 3 "" H 3900 6500 50  0001 C CNN
F 4 "RES SMD 100 OHM 1% 1/4W 1206 " H 3900 6500 70  0001 L BNN "DESCRIPTION"
F 5 "Yageo" H 3900 6500 70  0001 L BNN "MANUFACTURER"
F 6 "RC1206FR-07100RL " H 3900 6500 70  0001 L BNN "MANUFACTURER_PART_NUMBER"
F 7 "1206" H 3900 6500 70  0001 L BNN "PACKAGE"
	1    3900 6500
	1    0    0    -1  
$EndComp
$Comp
L AudioSense-Pi-eagle-import:RESISTOR1206 R4
U 1 1 DF9B7E76
P 3900 6800
F 0 "R4" H 3593 6819 70  0000 L BNN
F 1 "100E" H 4090 6830 70  0000 L BNN
F 2 "Resistor_SMD:R_0805_2012Metric_Pad1.15x1.40mm_HandSolder" H 3900 6800 50  0001 C CNN
F 3 "" H 3900 6800 50  0001 C CNN
F 4 "RES SMD 100 OHM 1% 1/4W 1206 " H 3900 6800 70  0001 L BNN "DESCRIPTION"
F 5 "Yageo" H 3900 6800 70  0001 L BNN "MANUFACTURER"
F 6 "RC1206FR-07100RL " H 3900 6800 70  0001 L BNN "MANUFACTURER_PART_NUMBER"
F 7 "1206" H 3900 6800 70  0001 L BNN "PACKAGE"
	1    3900 6800
	1    0    0    -1  
$EndComp
$Comp
L AudioSense-Pi-eagle-import:C-EUC1206 C2
U 1 1 55ABAA2F
P 3400 7100
F 0 "C2" H 3460 7115 59  0000 L BNN
F 1 "0.047uF" H 3460 6915 59  0000 L BNN
F 2 "Capacitor_SMD:C_0805_2012Metric_Pad1.15x1.40mm_HandSolder" H 3400 7100 50  0001 C CNN
F 3 "" H 3400 7100 50  0001 C CNN
F 4 "CAP CER 0.047UF 10V X7R 1206 " H 3400 7100 59  0001 L BNN "DESCRIPTION"
F 5 "AVX Corporation " H 3400 7100 59  0001 L BNN "MANUFACTURER"
F 6 "1206ZC473KAT2A " H 3400 7100 59  0001 L BNN "MANUFACTURER_PART_NUMBER"
F 7 "1206" H 3400 7100 59  0001 L BNN "PACKAGE"
	1    3400 7100
	1    0    0    -1  
$EndComp
$Comp
L AudioSense-Pi-eagle-import:C-EUC1206 C10
U 1 1 2416F5F7
P 4600 6500
F 0 "C10" V 4681 6554 59  0000 L BNN
F 1 "1uF" V 4681 6215 59  0000 L BNN
F 2 "Capacitor_SMD:C_0805_2012Metric_Pad1.15x1.40mm_HandSolder" H 4600 6500 50  0001 C CNN
F 3 "" H 4600 6500 50  0001 C CNN
F 4 "CAP CER 1UF 16V X7R 1206 " V 4600 6500 59  0001 R TNN "DESCRIPTION"
F 5 "Yageo" V 4600 6500 59  0001 R TNN "MANUFACTURER"
F 6 "CC1206JKX7R7BB105 " V 4600 6500 59  0001 R TNN "MANUFACTURER_PART_NUMBER"
F 7 "1206" V 4600 6500 59  0001 R TNN "PACKAGE"
	1    4600 6500
	0    -1   -1   0   
$EndComp
$Comp
L AudioSense-Pi-eagle-import:C-EUC1206 C11
U 1 1 C2E82A64
P 4600 6800
F 0 "C11" V 4681 6854 59  0000 L BNN
F 1 "1uF" V 4681 6515 59  0000 L BNN
F 2 "Capacitor_SMD:C_0805_2012Metric_Pad1.15x1.40mm_HandSolder" H 4600 6800 50  0001 C CNN
F 3 "" H 4600 6800 50  0001 C CNN
F 4 "CAP CER 1UF 16V X7R 1206 " V 4600 6800 59  0001 R TNN "DESCRIPTION"
F 5 "Yageo" V 4600 6800 59  0001 R TNN "MANUFACTURER"
F 6 "CC1206JKX7R7BB105 " V 4600 6800 59  0001 R TNN "MANUFACTURER_PART_NUMBER"
F 7 "1206" V 4600 6800 59  0001 R TNN "PACKAGE"
	1    4600 6800
	0    -1   -1   0   
$EndComp
$Comp
L AudioSense-Pi-eagle-import:RESISTOR1206 R7
U 1 1 0B1B139E
P 6600 5900
F 0 "R7" H 6630 6079 70  0000 L BNN
F 1 "4.7k" H 6610 5980 70  0000 L BNN
F 2 "Resistor_SMD:R_0805_2012Metric_Pad1.15x1.40mm_HandSolder" H 6600 5900 50  0001 C CNN
F 3 "" H 6600 5900 50  0001 C CNN
F 4 "RES SMD 4.7K OHM 1% 1/4W 1206 " H 6600 5900 70  0001 L BNN "DESCRIPTION"
F 5 "Yageo" H 6600 5900 70  0001 L BNN "MANUFACTURER"
F 6 "RC1206FR-074K7L " H 6600 5900 70  0001 L BNN "MANUFACTURER_PART_NUMBER"
F 7 "1206" H 6600 5900 70  0001 L BNN "PACKAGE"
	1    6600 5900
	1    0    0    -1  
$EndComp
$Comp
L AudioSense-Pi-eagle-import:C-EUC1206 C13
U 1 1 4ABE3390
P 6800 6600
F 0 "C13" H 6830 6615 59  0000 L BNN
F 1 "0.1uF" H 6830 6405 59  0000 L BNN
F 2 "Capacitor_SMD:C_0805_2012Metric_Pad1.15x1.40mm_HandSolder" H 6800 6600 50  0001 C CNN
F 3 "" H 6800 6600 50  0001 C CNN
F 4 "CAP CER 0.1UF 16V X7R 1206 " H 6800 6600 59  0001 L BNN "DESCRIPTION"
F 5 "Kemet" H 6800 6600 59  0001 L BNN "MANUFACTURER"
F 6 "C1206C104K4RACTU " H 6800 6600 59  0001 L BNN "MANUFACTURER_PART_NUMBER"
F 7 "1206" H 6800 6600 59  0001 L BNN "PACKAGE"
	1    6800 6600
	1    0    0    -1  
$EndComp
$Comp
L AudioSense-Pi-eagle-import:C-EUC1206 C12
U 1 1 A2F8029B
P 6400 6600
F 0 "C12" H 6420 6615 59  0000 L BNN
F 1 "10uF" H 6410 6415 59  0000 L BNN
F 2 "Capacitor_SMD:C_0805_2012Metric_Pad1.15x1.40mm_HandSolder" H 6400 6600 50  0001 C CNN
F 3 "" H 6400 6600 50  0001 C CNN
F 4 "CAP CER 10UF 16V X7R 1206 " H 6400 6600 59  0001 L BNN "DESCRIPTION"
F 5 "Kemet" H 6400 6600 59  0001 L BNN "MANUFACTURER"
F 6 "C1206C106J4RACTU " H 6400 6600 59  0001 L BNN "MANUFACTURER_PART_NUMBER"
F 7 "1206" H 6400 6600 59  0001 L BNN "PACKAGE"
	1    6400 6600
	1    0    0    -1  
$EndComp
$Comp
L AudioSense-Pi-eagle-import:RESISTOR1206 R14
U 1 1 62EB4634
P 10400 4800
F 0 "R14" H 10060 4819 70  0000 L BNN
F 1 "100E" H 10610 4820 70  0000 L BNN
F 2 "Resistor_SMD:R_0805_2012Metric_Pad1.15x1.40mm_HandSolder" H 10400 4800 50  0001 C CNN
F 3 "" H 10400 4800 50  0001 C CNN
F 4 "RES SMD 100 OHM 1% 1/4W 1206 " H 10400 4800 70  0001 L BNN "DESCRIPTION"
F 5 "Yageo" H 10400 4800 70  0001 L BNN "MANUFACTURER"
F 6 "RC1206FR-07100RL " H 10400 4800 70  0001 L BNN "MANUFACTURER_PART_NUMBER"
F 7 "1206" H 10400 4800 70  0001 L BNN "PACKAGE"
	1    10400 4800
	1    0    0    -1  
$EndComp
$Comp
L AudioSense-Pi-eagle-import:C-EUC1206 C22
U 1 1 B68D121C
P 10700 6900
F 0 "C22" H 10510 6915 59  0000 L BNN
F 1 "0.1uF" H 10430 6725 59  0000 L BNN
F 2 "Capacitor_SMD:C_0805_2012Metric_Pad1.15x1.40mm_HandSolder" H 10700 6900 50  0001 C CNN
F 3 "" H 10700 6900 50  0001 C CNN
F 4 "CAP CER 0.1UF 16V X7R 1206 " H 10700 6900 59  0001 R BNN "DESCRIPTION"
F 5 "Kemet" H 10700 6900 59  0001 R BNN "MANUFACTURER"
F 6 "C1206C104K4RACTU " H 10700 6900 59  0001 R BNN "MANUFACTURER_PART_NUMBER"
F 7 "1206" H 10700 6900 59  0001 R BNN "PACKAGE"
	1    10700 6900
	-1   0    0    -1  
$EndComp
$Comp
L AudioSense-Pi-eagle-import:RESISTOR1206 R9
U 1 1 5DE49355
P 10400 3800
F 0 "R9" H 10046 3808 70  0000 L BNN
F 1 "0" H 10635 3812 70  0000 L BNN
F 2 "Resistor_SMD:R_0805_2012Metric_Pad1.15x1.40mm_HandSolder" H 10400 3800 50  0001 C CNN
F 3 "" H 10400 3800 50  0001 C CNN
F 4 "RES SMD 0 OHM JUMPER 1/4W 1206 " H 10400 3800 70  0001 L BNN "DESCRIPTION"
F 5 "Yageo" H 10400 3800 70  0001 L BNN "MANUFACTURER"
F 6 "AC1206JR-070RL " H 10400 3800 70  0001 L BNN "MANUFACTURER_PART_NUMBER"
F 7 "1206" H 10400 3800 70  0001 L BNN "PACKAGE"
	1    10400 3800
	1    0    0    -1  
$EndComp
$Comp
L AudioSense-Pi-eagle-import:RESISTOR1206 R10
U 1 1 C3F715E1
P 10400 4100
F 0 "R10" H 10046 4108 70  0000 L BNN
F 1 "27E" H 10635 4112 70  0000 L BNN
F 2 "Resistor_SMD:R_0805_2012Metric_Pad1.15x1.40mm_HandSolder" H 10400 4100 50  0001 C CNN
F 3 "" H 10400 4100 50  0001 C CNN
F 4 "RES SMD 27 OHM 5% 1/4W 1206 " H 10400 4100 70  0001 L BNN "DESCRIPTION"
F 5 "Yageo" H 10400 4100 70  0001 L BNN "MANUFACTURER"
F 6 "RC1206JR-0727RL " H 10400 4100 70  0001 L BNN "MANUFACTURER_PART_NUMBER"
F 7 "1206" H 10400 4100 70  0001 L BNN "PACKAGE"
	1    10400 4100
	1    0    0    -1  
$EndComp
$Comp
L AudioSense-Pi-eagle-import:RESISTOR1206 R11
U 1 1 75D55582
P 10400 4200
F 0 "R11" H 10046 4208 70  0000 L BNN
F 1 "27E" H 10635 4212 70  0000 L BNN
F 2 "Resistor_SMD:R_0805_2012Metric_Pad1.15x1.40mm_HandSolder" H 10400 4200 50  0001 C CNN
F 3 "" H 10400 4200 50  0001 C CNN
F 4 "RES SMD 27 OHM 5% 1/4W 1206 " H 10400 4200 70  0001 L BNN "DESCRIPTION"
F 5 "Yageo" H 10400 4200 70  0001 L BNN "MANUFACTURER"
F 6 "RC1206JR-0727RL " H 10400 4200 70  0001 L BNN "MANUFACTURER_PART_NUMBER"
F 7 "1206" H 10400 4200 70  0001 L BNN "PACKAGE"
	1    10400 4200
	1    0    0    -1  
$EndComp
$Comp
L AudioSense-Pi-eagle-import:RESISTOR1206 R12
U 1 1 C77C64AA
P 10400 4300
F 0 "R12" H 10046 4308 70  0000 L BNN
F 1 "27E" H 10635 4312 70  0000 L BNN
F 2 "Resistor_SMD:R_0805_2012Metric_Pad1.15x1.40mm_HandSolder" H 10400 4300 50  0001 C CNN
F 3 "" H 10400 4300 50  0001 C CNN
F 4 "RES SMD 27 OHM 5% 1/4W 1206 " H 10400 4300 70  0001 L BNN "DESCRIPTION"
F 5 "Yageo" H 10400 4300 70  0001 L BNN "MANUFACTURER"
F 6 "RC1206JR-0727RL " H 10400 4300 70  0001 L BNN "MANUFACTURER_PART_NUMBER"
F 7 "1206" H 10400 4300 70  0001 L BNN "PACKAGE"
	1    10400 4300
	1    0    0    -1  
$EndComp
$Comp
L AudioSense-Pi-eagle-import:RESISTOR1206 R13
U 1 1 17121EC6
P 10400 4400
F 0 "R13" H 10046 4408 70  0000 L BNN
F 1 "27E" H 10635 4412 70  0000 L BNN
F 2 "Resistor_SMD:R_0805_2012Metric_Pad1.15x1.40mm_HandSolder" H 10400 4400 50  0001 C CNN
F 3 "" H 10400 4400 50  0001 C CNN
F 4 "RES SMD 27 OHM 5% 1/4W 1206 " H 10400 4400 70  0001 L BNN "DESCRIPTION"
F 5 "Yageo" H 10400 4400 70  0001 L BNN "MANUFACTURER"
F 6 "RC1206JR-0727RL " H 10400 4400 70  0001 L BNN "MANUFACTURER_PART_NUMBER"
F 7 "1206" H 10400 4400 70  0001 L BNN "PACKAGE"
	1    10400 4400
	1    0    0    -1  
$EndComp
$Comp
L AudioSense-Pi-eagle-import:RESISTOR1206 R8
U 1 1 26CA44C6
P 9450 6400
F 0 "R8" V 9387 6158 70  0000 L BNN
F 1 "4.7k" V 9486 6137 70  0000 L BNN
F 2 "Resistor_SMD:R_0805_2012Metric_Pad1.15x1.40mm_HandSolder" H 9450 6400 50  0001 C CNN
F 3 "" H 9450 6400 50  0001 C CNN
F 4 "RES SMD 4.7K OHM 1% 1/4W 1206 " V 9450 6400 70  0001 L BNN "DESCRIPTION"
F 5 "Yageo" V 9450 6400 70  0001 L BNN "MANUFACTURER"
F 6 "RC1206FR-074K7L " V 9450 6400 70  0001 L BNN "MANUFACTURER_PART_NUMBER"
F 7 "1206" V 9450 6400 70  0001 L BNN "PACKAGE"
	1    9450 6400
	0    1    1    0   
$EndComp
$Comp
L AudioSense-Pi-eagle-import:3.3V #SUPPLY08
U 1 1 CC52D7E0
P 15200 2800
F 0 "#SUPPLY08" H 15200 2800 50  0001 C CNN
F 1 "3.3V" H 15200 2910 59  0000 C BNN
F 2 "" H 15200 2800 50  0001 C CNN
F 3 "" H 15200 2800 50  0001 C CNN
	1    15200 2800
	1    0    0    -1  
$EndComp
$Comp
L AudioSense-Pi-eagle-import:3.3V #SUPPLY03
U 1 1 D5692080
P 6500 2000
F 0 "#SUPPLY03" H 6500 2000 50  0001 C CNN
F 1 "3.3V" H 6500 2110 59  0000 C BNN
F 2 "" H 6500 2000 50  0001 C CNN
F 3 "" H 6500 2000 50  0001 C CNN
	1    6500 2000
	1    0    0    -1  
$EndComp
$Comp
L AudioSense-Pi-eagle-import:3.3V #SUPPLY02
U 1 1 33EFDB7C
P 6300 5800
F 0 "#SUPPLY02" H 6300 5800 50  0001 C CNN
F 1 "3.3V" H 6300 5910 59  0000 C BNN
F 2 "" H 6300 5800 50  0001 C CNN
F 3 "" H 6300 5800 50  0001 C CNN
	1    6300 5800
	1    0    0    -1  
$EndComp
$Comp
L AudioSense-Pi-eagle-import:3.3V #SUPPLY07
U 1 1 70B0FDB1
P 10700 6100
F 0 "#SUPPLY07" H 10700 6100 50  0001 C CNN
F 1 "3.3V" H 10700 6210 59  0000 C BNN
F 2 "" H 10700 6100 50  0001 C CNN
F 3 "" H 10700 6100 50  0001 C CNN
	1    10700 6100
	1    0    0    -1  
$EndComp
$Comp
L AudioSense-Pi-eagle-import:3.3V #SUPPLY04
U 1 1 6DF68C43
P 7400 7850
F 0 "#SUPPLY04" H 7400 7850 50  0001 C CNN
F 1 "3.3V" H 7400 7960 59  0000 C BNN
F 2 "" H 7400 7850 50  0001 C CNN
F 3 "" H 7400 7850 50  0001 C CNN
	1    7400 7850
	1    0    0    -1  
$EndComp
$Comp
L AudioSense-Pi-eagle-import:T491?D C3
U 1 1 B75AD673
P 3500 5000
F 0 "C3" V 3440 4747 59  0000 L BNN
F 1 "220uF/10V" V 3475 5140 59  0000 L BNN
F 2 "AudioSense-Pi:D" H 3500 5000 50  0001 C CNN
F 3 "" H 3500 5000 50  0001 C CNN
F 4 "200µF/10V" V 3700 4840 59  0001 L BNN "CAPACITANCE"
F 5 "CAP TANT 220UF 10V 10% 2917 " V 3700 4840 59  0001 L BNN "DESCRIPTION"
F 6 "KEMET " V 3700 4840 59  0001 L BNN "MANUFACTURER"
F 7 "T491D227K010AT" V 3500 5000 59  0001 L BNN "MANUFACTURER_PART_NUMBER"
F 8 "2917 (7343 Metric) " V 3500 5000 59  0001 L BNN "PACKAGE"
	1    3500 5000
	0    1    1    0   
$EndComp
$Comp
L AudioSense-Pi-eagle-import:T491?D C4
U 1 1 95F265C9
P 3500 5300
F 0 "C4" V 3465 5072 59  0000 L BNN
F 1 "220uF/10V" V 3475 5447 59  0000 L BNN
F 2 "AudioSense-Pi:D" H 3500 5300 50  0001 C CNN
F 3 "" H 3500 5300 50  0001 C CNN
F 4 "200µF/10V" V 3700 5140 59  0001 L BNN "CAPACITANCE"
F 5 "CAP TANT 220UF 10V 10% 2917 " V 3700 5140 59  0001 L BNN "DESCRIPTION"
F 6 "KEMET " V 3700 5140 59  0001 L BNN "MANUFACTURER"
F 7 "T491D227K010AT" V 3500 5300 59  0001 L BNN "MANUFACTURER_PART_NUMBER"
F 8 "2917 (7343 Metric) " V 3500 5300 59  0001 L BNN "PACKAGE"
	1    3500 5300
	0    1    1    0   
$EndComp
$Comp
L AudioSense-Pi-eagle-import:C-EUC1206 C8
U 1 1 4C9C6DE4
P 3700 2400
F 0 "C8" V 3800 2415 59  0000 L BNN
F 1 "0.47uF/6.3V" V 3760 2215 59  0000 R TNN
F 2 "Capacitor_SMD:C_0805_2012Metric_Pad1.15x1.40mm_HandSolder" H 3700 2400 50  0001 C CNN
F 3 "" H 3700 2400 50  0001 C CNN
F 4 "CAP CER 0.47UF 16V X7R 1206 " V 3700 2400 59  0001 R TNN "DESCRIPTION"
F 5 "Yageo " V 3700 2400 59  0001 R TNN "MANUFACTURER"
F 6 "CC1206KRX7R7BB474 " V 3700 2400 59  0001 R TNN "MANUFACTURER_PART_NUMBER"
F 7 "1206" V 3700 2400 59  0001 R TNN "PACKAGE"
	1    3700 2400
	0    -1   -1   0   
$EndComp
$Comp
L AudioSense-Pi-eagle-import:C-EUC1206 C5
U 1 1 D790D1B6
P 3600 3100
F 0 "C5" V 3710 3125 59  0000 L BNN
F 1 "0.47uF/6.3V" V 3660 2915 59  0000 R TNN
F 2 "Capacitor_SMD:C_0805_2012Metric_Pad1.15x1.40mm_HandSolder" H 3600 3100 50  0001 C CNN
F 3 "" H 3600 3100 50  0001 C CNN
F 4 "CAP CER 0.47UF 16V X7R 1206 " V 3600 3100 59  0001 R TNN "DESCRIPTION"
F 5 "Yageo " V 3600 3100 59  0001 R TNN "MANUFACTURER"
F 6 "CC1206KRX7R7BB474 " V 3600 3100 59  0001 R TNN "MANUFACTURER_PART_NUMBER"
F 7 "1206" V 3600 3100 59  0001 R TNN "PACKAGE"
	1    3600 3100
	0    -1   -1   0   
$EndComp
$Comp
L AudioSense-Pi-eagle-import:C-EUC1206 C6
U 1 1 D0E49518
P 3600 3400
F 0 "C6" V 3690 3415 59  0000 L BNN
F 1 "0.47uF/6.3V" V 3660 3215 59  0000 R TNN
F 2 "Capacitor_SMD:C_0805_2012Metric_Pad1.15x1.40mm_HandSolder" H 3600 3400 50  0001 C CNN
F 3 "" H 3600 3400 50  0001 C CNN
F 4 "CAP CER 0.47UF 16V X7R 1206 " V 3600 3400 59  0001 R TNN "DESCRIPTION"
F 5 "Yageo " V 3600 3400 59  0001 R TNN "MANUFACTURER"
F 6 "CC1206KRX7R7BB474 " V 3600 3400 59  0001 R TNN "MANUFACTURER_PART_NUMBER"
F 7 "1206" V 3600 3400 59  0001 R TNN "PACKAGE"
	1    3600 3400
	0    -1   -1   0   
$EndComp
$Comp
L AudioSense-Pi-eagle-import:C-EUC1206 C9
U 1 1 096B3E30
P 4025 5500
F 0 "C9" V 4108 5539 59  0000 L BNN
F 1 "0.47uF/6.3V" V 4108 4850 59  0000 L BNN
F 2 "Capacitor_SMD:C_0805_2012Metric_Pad1.15x1.40mm_HandSolder" H 4025 5500 50  0001 C CNN
F 3 "" H 4025 5500 50  0001 C CNN
F 4 "CAP CER 0.47UF 16V X7R 1206 " V 4025 5500 59  0001 R TNN "DESCRIPTION"
F 5 "Yageo " V 4025 5500 59  0001 R TNN "MANUFACTURER"
F 6 "CC1206KRX7R7BB474 " V 4025 5500 59  0001 R TNN "MANUFACTURER_PART_NUMBER"
F 7 "1206" V 4025 5500 59  0001 R TNN "PACKAGE"
	1    4025 5500
	0    -1   -1   0   
$EndComp
$Comp
L AudioSense-Pi-eagle-import:DGND #GND09
U 1 1 928DF91D
P 14600 6150
F 0 "#GND09" H 14600 6150 50  0001 C CNN
F 1 "DGND" H 14600 6140 59  0000 C TNN
F 2 "" H 14600 6150 50  0001 C CNN
F 3 "" H 14600 6150 50  0001 C CNN
	1    14600 6150
	1    0    0    -1  
$EndComp
$Comp
L AudioSense-Pi-eagle-import:AGND #AGND07
U 1 1 69B3F7DA
P 8500 7300
F 0 "#AGND07" H 8500 7300 50  0001 C CNN
F 1 "AGND" H 8500 7290 59  0000 C TNN
F 2 "" H 8500 7300 50  0001 C CNN
F 3 "" H 8500 7300 50  0001 C CNN
	1    8500 7300
	1    0    0    -1  
$EndComp
$Comp
L AudioSense-Pi-eagle-import:DGND #GND05
U 1 1 EF27308A
P 7700 7300
F 0 "#GND05" H 7700 7300 50  0001 C CNN
F 1 "DGND" H 7700 7290 59  0000 C TNN
F 2 "" H 7700 7300 50  0001 C CNN
F 3 "" H 7700 7300 50  0001 C CNN
	1    7700 7300
	1    0    0    -1  
$EndComp
$Comp
L AudioSense-Pi-eagle-import:DGND #GND04
U 1 1 D896219B
P 7400 8850
F 0 "#GND04" H 7400 8850 50  0001 C CNN
F 1 "DGND" H 7400 8840 59  0000 C TNN
F 2 "" H 7400 8850 50  0001 C CNN
F 3 "" H 7400 8850 50  0001 C CNN
	1    7400 8850
	1    0    0    -1  
$EndComp
$Comp
L AudioSense-Pi-eagle-import:AGND #AGND08
U 1 1 598FAA9C
P 8700 8850
F 0 "#AGND08" H 8700 8850 50  0001 C CNN
F 1 "AGND" H 8700 8840 59  0000 C TNN
F 2 "" H 8700 8850 50  0001 C CNN
F 3 "" H 8700 8850 50  0001 C CNN
	1    8700 8850
	1    0    0    -1  
$EndComp
$Comp
L AudioSense-Pi-eagle-import:DGND #GND07
U 1 1 9CDE76EF
P 10700 7400
F 0 "#GND07" H 10700 7400 50  0001 C CNN
F 1 "DGND" H 10700 7390 59  0000 C TNN
F 2 "" H 10700 7400 50  0001 C CNN
F 3 "" H 10700 7400 50  0001 C CNN
	1    10700 7400
	1    0    0    -1  
$EndComp
$Comp
L AudioSense-Pi-eagle-import:AGND #AGND06
U 1 1 E901FF73
P 6800 7100
F 0 "#AGND06" H 6800 7100 50  0001 C CNN
F 1 "AGND" H 6800 7090 59  0000 C TNN
F 2 "" H 6800 7100 50  0001 C CNN
F 3 "" H 6800 7100 50  0001 C CNN
	1    6800 7100
	1    0    0    -1  
$EndComp
$Comp
L AudioSense-Pi-eagle-import:AGND #AGND05
U 1 1 C5B3F747
P 3000 7700
F 0 "#AGND05" H 3000 7700 50  0001 C CNN
F 1 "AGND" H 3000 7690 59  0000 C TNN
F 2 "" H 3000 7700 50  0001 C CNN
F 3 "" H 3000 7700 50  0001 C CNN
	1    3000 7700
	1    0    0    -1  
$EndComp
$Comp
L AudioSense-Pi-eagle-import:AGND #AGND02
U 1 1 0A573ADE
P 2600 7100
F 0 "#AGND02" H 2600 7100 50  0001 C CNN
F 1 "AGND" H 2600 7090 59  0000 C TNN
F 2 "" H 2600 7100 50  0001 C CNN
F 3 "" H 2600 7100 50  0001 C CNN
	1    2600 7100
	1    0    0    -1  
$EndComp
$Comp
L AudioSense-Pi-eagle-import:AGND #AGND04
U 1 1 772F0C8E
P 3000 5900
F 0 "#AGND04" H 3000 5900 50  0001 C CNN
F 1 "AGND" H 3000 5890 59  0000 C TNN
F 2 "" H 3000 5900 50  0001 C CNN
F 3 "" H 3000 5900 50  0001 C CNN
	1    3000 5900
	1    0    0    -1  
$EndComp
$Comp
L AudioSense-Pi-eagle-import:AGND #AGND01
U 1 1 6F4AA42C
P 2600 3800
F 0 "#AGND01" H 2600 3800 50  0001 C CNN
F 1 "AGND" H 2600 3790 59  0000 C TNN
F 2 "" H 2600 3800 50  0001 C CNN
F 3 "" H 2600 3800 50  0001 C CNN
	1    2600 3800
	1    0    0    -1  
$EndComp
$Comp
L AudioSense-Pi-eagle-import:AGND #AGND03
U 1 1 3D008BDF
P 2700 2700
F 0 "#AGND03" H 2700 2700 50  0001 C CNN
F 1 "AGND" H 2700 2690 59  0000 C TNN
F 2 "" H 2700 2700 50  0001 C CNN
F 3 "" H 2700 2700 50  0001 C CNN
	1    2700 2700
	1    0    0    -1  
$EndComp
$Comp
L AudioSense-Pi-eagle-import:AGND #AGND09
U 1 1 6F2E8B30
P 9100 1900
F 0 "#AGND09" H 9100 1900 50  0001 C CNN
F 1 "AGND" H 9100 1890 59  0000 C TNN
F 2 "" H 9100 1900 50  0001 C CNN
F 3 "" H 9100 1900 50  0001 C CNN
	1    9100 1900
	1    0    0    -1  
$EndComp
$Comp
L AudioSense-Pi-eagle-import:AGND #AGND010
U 1 1 284F5A01
P 9100 2900
F 0 "#AGND010" H 9100 2900 50  0001 C CNN
F 1 "AGND" H 9100 2890 59  0000 C TNN
F 2 "" H 9100 2900 50  0001 C CNN
F 3 "" H 9100 2900 50  0001 C CNN
	1    9100 2900
	1    0    0    -1  
$EndComp
$Comp
L AudioSense-Pi-eagle-import:DGND #GND02
U 1 1 13A376EC
P 7000 1900
F 0 "#GND02" H 7000 1900 50  0001 C CNN
F 1 "DGND" H 7000 1890 59  0000 C TNN
F 2 "" H 7000 1900 50  0001 C CNN
F 3 "" H 7000 1900 50  0001 C CNN
	1    7000 1900
	1    0    0    -1  
$EndComp
$Comp
L AudioSense-Pi-eagle-import:DGND #GND03
U 1 1 7679BDCC
P 7000 2900
F 0 "#GND03" H 7000 2900 50  0001 C CNN
F 1 "DGND" H 7000 2890 59  0000 C TNN
F 2 "" H 7000 2900 50  0001 C CNN
F 3 "" H 7000 2900 50  0001 C CNN
	1    7000 2900
	1    0    0    -1  
$EndComp
$Comp
L AudioSense-Pi-eagle-import:DGND #GND06
U 1 1 A07C0193
P 9450 6750
F 0 "#GND06" H 9450 6750 50  0001 C CNN
F 1 "DGND" H 9450 6740 59  0000 C TNN
F 2 "" H 9450 6750 50  0001 C CNN
F 3 "" H 9450 6750 50  0001 C CNN
	1    9450 6750
	1    0    0    -1  
$EndComp
$Comp
L AudioSense-Pi-eagle-import:DGND #GND08
U 1 1 DF24F9E8
P 11300 3300
F 0 "#GND08" H 11300 3300 50  0001 C CNN
F 1 "DGND" H 11300 3290 59  0000 C TNN
F 2 "" H 11300 3300 50  0001 C CNN
F 3 "" H 11300 3300 50  0001 C CNN
	1    11300 3300
	1    0    0    -1  
$EndComp
$Comp
L AudioSense-Pi-eagle-import:ASV-OSCILLATOR XTAL1
U 1 1 C2527EEC
P 11500 6800
F 0 "XTAL1" H 11200 7025 59  0000 L BNN
F 1 "ASV-OSCILLATOR" H 11200 6500 59  0000 L BNN
F 2 "Oscillator:Oscillator_SMD_Diodes_FN-4Pin_7.0x5.0mm" H 11500 6800 50  0001 C CNN
F 3 "" H 11500 6800 50  0001 C CNN
F 4 "OSC XO 12.000MHZ HCMOS SMD " H 11500 6800 59  0001 L BNN "DESCRIPTION"
F 5 "Abracon LLC " H 11500 6800 59  0001 L BNN "MANUFACTURER"
F 6 "ASV-12.000MHZ-EJ-T " H 11500 6800 59  0001 L BNN "MANUFACTURER_PART_NUMBER"
F 7 "1206" H 11500 6800 59  0001 L BNN "PACKAGE"
	1    11500 6800
	1    0    0    -1  
$EndComp
$Comp
L AudioSense-Pi-eagle-import:RASPBERRYPI-40-PIN-GPIO_PTH_NO_SHROUD J5
U 1 1 0A445BA9
P 13800 4400
F 0 "J5" H 13300 5530 59  0000 L BNN
F 1 "RASPBERRYPI-40-PIN-GPIO_PTH_NO_SHROUD" H 12700 3000 59  0000 L BNN
F 2 "AudioSense-Pi:2X20" H 13800 4400 50  0001 C CNN
F 3 "" H 13800 4400 50  0001 C CNN
F 4 "Stacking Header for Pi A+/B+/Pi 2/Pi 3 - 2x20 Extra Tall Header" H 13800 4400 59  0001 R BNN "DESCRIPTION"
F 5 "Adafruit" H 13800 4400 59  0001 R BNN "MANUFACTURER"
F 6 "1979" H 13800 4400 59  0001 R BNN "MANUFACTURER_PART_NUMBER"
F 7 "PTH" H 13800 4400 59  0001 R BNN "PACKAGE"
	1    13800 4400
	-1   0    0    -1  
$EndComp
$Comp
L AudioSense-Pi-eagle-import:RESISTOR1206 R5
U 1 1 F5E59E3A
P 4100 5700
F 0 "R5" H 3980 5789 70  0000 R TNN
F 1 "1k" H 4340 5790 70  0000 R TNN
F 2 "Resistor_SMD:R_0805_2012Metric_Pad1.15x1.40mm_HandSolder" H 4100 5700 50  0001 C CNN
F 3 "" H 4100 5700 50  0001 C CNN
F 4 "RES SMD 1K OHM 1% 1/4W 1206 " H 4100 5700 70  0001 L BNN "DESCRIPTION"
F 5 "Yageo" H 4100 5700 70  0001 L BNN "MANUFACTURER"
F 6 "RC1206FR-071KL " H 4100 5700 70  0001 L BNN "MANUFACTURER_PART_NUMBER"
F 7 "1206" H 4100 5700 70  0001 L BNN "PACKAGE"
	1    4100 5700
	1    0    0    -1  
$EndComp
$Comp
L AudioSense-Pi-eagle-import:TLV320AIC3204IRHBR U1
U 1 1 F9562130
P 8100 4900
F 0 "U1" H 8743 6693 69  0000 L BNN
F 1 "TLV320AIC3204IRHBR" H 8753 6593 69  0000 L BNN
F 2 "AudioSense-Pi:QFN50P500X500X100-33N" H 8100 4900 50  0001 C CNN
F 3 "" H 8100 4900 50  0001 C CNN
F 4 "IC STEREO AUDIO CODEC 1.8V 32QFN " H 8100 4900 69  0001 L BNN "DESCRIPTION"
F 5 "Texas Instruments " H 8100 4900 69  0001 L BNN "MANUFACTURER"
F 6 "TLV320AIC3204IRHBR " H 8100 4900 69  0001 L BNN "MANUFACTURER_PART_NUMBER"
F 7 "32-VFQFN Exposed Pad " H 8753 6593 69  0001 L BNN "PACKAGE"
	1    8100 4900
	1    0    0    -1  
$EndComp
$Comp
L AudioSense-Pi-eagle-import:3.3V #SUPPLY01
U 1 1 E46721A6
P 10800 1300
F 0 "#SUPPLY01" H 10800 1300 50  0001 C CNN
F 1 "3.3V" H 11000 1350 59  0000 C BNN
F 2 "" H 10800 1300 50  0001 C CNN
F 3 "" H 10800 1300 50  0001 C CNN
	1    10800 1300
	1    0    0    -1  
$EndComp
$Comp
L AudioSense-Pi-eagle-import:DGND #GND01
U 1 1 DB8695AC
P 10800 2500
F 0 "#GND01" H 10800 2500 50  0001 C CNN
F 1 "DGND" H 11050 2600 59  0000 C TNN
F 2 "" H 10800 2500 50  0001 C CNN
F 3 "" H 10800 2500 50  0001 C CNN
	1    10800 2500
	1    0    0    -1  
$EndComp
$Comp
L AudioSense-Pi-eagle-import:RESISTOR1206 R6
U 1 1 78FFFB77
P 10800 1600
F 0 "R6" V 10750 1700 70  0000 L BNN
F 1 "330E" V 10850 1700 70  0000 L BNN
F 2 "Resistor_SMD:R_0805_2012Metric_Pad1.15x1.40mm_HandSolder" H 10800 1600 50  0001 C CNN
F 3 "" H 10800 1600 50  0001 C CNN
F 4 "RES SMD 330 OHM 5% 1/4W 1206 " V 10800 1600 70  0001 L BNN "DESCRIPTION"
F 5 "Yageo" V 10800 1600 70  0001 L BNN "MANUFACTURER"
F 6 "RC1206JR-07330RL " V 10800 1600 70  0001 L BNN "MANUFACTURER_PART_NUMBER"
F 7 "1206" V 10800 1600 70  0001 L BNN "PACKAGE"
	1    10800 1600
	0    1    1    0   
$EndComp
$Comp
L AudioSense-Pi-eagle-import:FERRITE_0805MP FB1
U 1 1 46CB01E6
P 8050 8050
F 0 "FB1" H 7921 8125 59  0000 L BNN
F 1 "150E/800mA" H 7921 7965 59  0000 L BNN
F 2 "Capacitor_SMD:C_0805_2012Metric_Pad1.15x1.40mm_HandSolder" H 8050 8050 50  0001 C CNN
F 3 "" H 8050 8050 50  0001 C CNN
F 4 "FERRITE BEAD 150 OHM 0805 1LN " H 8050 8050 59  0001 L BNN "DESCRIPTION"
F 5 "Murata Electronics North America " H 7922 7965 59  0001 L BNN "MANUFACTURER"
F 6 "BLM21AG151SN1D " H 8050 8050 59  0001 L BNN "MANUFACTURER_PART_NUMBER"
F 7 "0805 (2012 Metric) " H 8050 8050 59  0001 L BNN "PACKAGE"
	1    8050 8050
	1    0    0    -1  
$EndComp
$Comp
L AudioSense-Pi-eagle-import:FERRITE_0805MP FB2
U 1 1 2ACE3A43
P 8100 8650
F 0 "FB2" H 7971 8725 59  0000 L BNN
F 1 "150E/800mA" H 7971 8565 59  0000 L BNN
F 2 "Capacitor_SMD:C_0805_2012Metric_Pad1.15x1.40mm_HandSolder" H 8100 8650 50  0001 C CNN
F 3 "" H 8100 8650 50  0001 C CNN
F 4 "FERRITE BEAD 150 OHM 0805 1LN " H 8100 8650 59  0001 L BNN "DESCRIPTION"
F 5 "Murata Electronics North America " H 7972 8565 59  0001 L BNN "MANUFACTURER"
F 6 "BLM21AG151SN1D " H 8100 8650 59  0001 L BNN "MANUFACTURER_PART_NUMBER"
F 7 "0805 (2012 Metric) " H 8100 8650 59  0001 L BNN "PACKAGE"
	1    8100 8650
	1    0    0    -1  
$EndComp
$Comp
L AudioSense-Pi-eagle-import:FERRITE_0805MP FB3
U 1 1 5F6C1C5D
P 10700 6400
F 0 "FB3" V 10650 6500 59  0000 L BNN
F 1 "150E/800mA" V 10750 6500 59  0000 L BNN
F 2 "Capacitor_SMD:C_0805_2012Metric_Pad1.15x1.40mm_HandSolder" H 10700 6400 50  0001 C CNN
F 3 "" H 10700 6400 50  0001 C CNN
F 4 "FERRITE BEAD 150 OHM 0805 1LN " H 10700 6400 59  0001 L BNN "DESCRIPTION"
F 5 "Murata Electronics North America " H 10572 6315 59  0001 L BNN "MANUFACTURER"
F 6 "BLM21AG151SN1D " H 10700 6400 59  0001 L BNN "MANUFACTURER_PART_NUMBER"
F 7 "0805 (2012 Metric) " H 10700 6400 59  0001 L BNN "PACKAGE"
	1    10700 6400
	0    1    1    0   
$EndComp
$Comp
L AudioSense-Pi-eagle-import:SJ-43514-SMT J4
U 1 1 2A89DB3B
P 2100 5200
F 0 "J4" H 2320 5450 59  0000 R BNN
F 1 "SJ-43514-SMT" H 2360 4800 59  0000 R BNN
F 2 "AudioSense-Pi:SJ-43514-SMT" H 2100 5200 50  0001 C CNN
F 3 "" H 2100 5200 50  0001 C CNN
F 4 "CONN JACK 4COND 3.5MM SMD R/A " H 2360 4800 59  0001 R BNN "DESCRIPTION"
F 5 "CUI Inc. " H 2360 4800 59  0001 R BNN "MANUFACTURER"
F 6 "SJ-43514-SMT-TR " H 2100 5200 59  0001 L BNN "MANUFACTURER_PART_NUMBER"
F 7 "Surface Mount, Right Angle " H 2100 5200 59  0001 L BNN "PACKAGE"
	1    2100 5200
	1    0    0    -1  
$EndComp
$Comp
L AudioSense-Pi-eagle-import:RESISTOR1206 R2
U 1 1 733DB3B0
P 3700 2900
F 0 "R2" H 3600 3009 70  0000 R TNN
F 1 "1k" H 3900 3020 70  0000 R TNN
F 2 "Resistor_SMD:R_0805_2012Metric_Pad1.15x1.40mm_HandSolder" H 3700 2900 50  0001 C CNN
F 3 "" H 3700 2900 50  0001 C CNN
F 4 "RES SMD 1K OHM 1% 1/4W 1206 " H 3700 2900 70  0001 L BNN "DESCRIPTION"
F 5 "Yageo" H 3700 2900 70  0001 L BNN "MANUFACTURER"
F 6 "RC1206FR-071KL " H 3700 2900 70  0001 L BNN "MANUFACTURER_PART_NUMBER"
F 7 "1206" H 3700 2900 70  0001 L BNN "PACKAGE"
	1    3700 2900
	1    0    0    -1  
$EndComp
$Comp
L AudioSense-Pi-eagle-import:RESISTOR1206 R1
U 1 1 4B3B8125
P 2900 3600
F 0 "R1" H 3221 3680 70  0000 R TNN
F 1 "1k" H 3040 3520 70  0000 L BNN
F 2 "Resistor_SMD:R_0805_2012Metric_Pad1.15x1.40mm_HandSolder" H 2900 3600 50  0001 C CNN
F 3 "" H 2900 3600 50  0001 C CNN
F 4 "RES SMD 1K OHM 1% 1/4W 1206 " H 2900 3600 70  0001 L BNN "DESCRIPTION"
F 5 "Yageo" H 2900 3600 70  0001 L BNN "MANUFACTURER"
F 6 "RC1206FR-071KL " H 2900 3600 70  0001 L BNN "MANUFACTURER_PART_NUMBER"
F 7 "1206" H 2900 3600 70  0001 L BNN "PACKAGE"
	1    2900 3600
	1    0    0    -1  
$EndComp
$Comp
L AudioSense-Pi-eagle-import:219-02 S1
U 1 1 CEBFFD5E
P 5100 4400
F 0 "S1" V 5000 4200 59  0000 L BNN
F 1 "219-02" V 5375 4200 59  0000 L BNN
F 2 "AudioSense-Pi:CTS-219-02" H 5100 4400 50  0001 C CNN
F 3 "" H 5100 4400 50  0001 C CNN
	1    5100 4400
	0    -1   -1   0   
$EndComp
$Comp
L AudioSense-Pi-eagle-import:FIDUCIAL"" FID1
U 1 1 DB63CB8D
P 15800 8000
F 0 "FID1" H 15800 8000 50  0001 C CNN
F 1 "FIDUCIAL\"\"" H 15800 8000 50  0001 C CNN
F 2 "AudioSense-Pi:FIDUCIAL_1MM" H 15800 8000 50  0001 C CNN
F 3 "" H 15800 8000 50  0001 C CNN
	1    15800 8000
	1    0    0    -1  
$EndComp
$Comp
L AudioSense-Pi-eagle-import:FIDUCIAL"" FID2
U 1 1 E067070F
P 15700 8000
F 0 "FID2" H 15700 8000 50  0001 C CNN
F 1 "FIDUCIAL\"\"" H 15700 8000 50  0001 C CNN
F 2 "AudioSense-Pi:FIDUCIAL_1MM" H 15700 8000 50  0001 C CNN
F 3 "" H 15700 8000 50  0001 C CNN
	1    15700 8000
	1    0    0    -1  
$EndComp
$Comp
L AudioSense-Pi-eagle-import:DGND #GND010
U 1 1 845C69E3
P 5850 9600
F 0 "#GND010" H 5850 9600 50  0001 C CNN
F 1 "DGND" H 5850 9590 59  0000 C TNN
F 2 "" H 5850 9600 50  0001 C CNN
F 3 "" H 5850 9600 50  0001 C CNN
	1    5850 9600
	1    0    0    -1  
$EndComp
$Comp
L AudioSense-Pi-eagle-import:3.3V #SUPPLY09
U 1 1 7F737C64
P 5850 8100
F 0 "#SUPPLY09" H 5850 8100 50  0001 C CNN
F 1 "3.3V" H 5850 8210 59  0000 C BNN
F 2 "" H 5850 8100 50  0001 C CNN
F 3 "" H 5850 8100 50  0001 C CNN
	1    5850 8100
	1    0    0    -1  
$EndComp
$Comp
L AudioSense-Pi-eagle-import:DINA4_L #FRAME2
U 2 1 DFE0E5AC
P 11900 9200
F 0 "#FRAME2" H 11900 9200 50  0001 C CNN
F 1 "DINA4_L" H 11900 9200 50  0001 C CNN
F 2 "" H 11900 9200 50  0001 C CNN
F 3 "" H 11900 9200 50  0001 C CNN
	2    11900 9200
	1    0    0    -1  
$EndComp
$Comp
L AudioSense-Pi-eagle-import:CERT-SMALL U$6
U 1 1 0FAF4147
P 11400 8300
F 0 "U$6" H 11400 8300 50  0001 C CNN
F 1 "IN000007" H 11215 8200 70  0000 L BNN
F 2 "AudioSense-Pi:CERT-SMALL-SILK" H 11400 8300 50  0001 C CNN
F 3 "" H 11400 8300 50  0001 C CNN
	1    11400 8300
	1    0    0    -1  
$EndComp
$Comp
L AudioSense-Pi-eagle-import:OSHW-LOGOM LOGO2
U 1 1 7B08F8A5
P 11400 8800
F 0 "LOGO2" H 11400 8800 50  0001 C CNN
F 1 "OSHW-LOGOM" H 11400 8800 50  0001 C CNN
F 2 "Aesthetics:OSHW-LOGO-M" H 11400 8800 50  0001 C CNN
F 3 "" H 11400 8800 50  0001 C CNN
	1    11400 8800
	1    0    0    -1  
$EndComp
Wire Notes Line
	10400 4400 11100 4400
Text Notes 7150 8400 0    59   ~ 0
Tie Analog power to Digital Power through a \nsingle point connection or Ferrite Bead
Text Notes 12800 8900 0    127  ~ 0
b-ak
Text Notes 2800 4625 0    59   ~ 0
1. Use Switch S1 to turn ON/OFF MICBIAS\nto Jacks J2 and J4\n2. Inserting a 3 Pole audio Jack into J4 will\nground the MICBIAS Pin(19), SW1 of S1\nmust be turned OFF before doing this.
Text Notes 1300 3825 0    59   ~ 0
IN2 can be used for Analog \nMicrophone Input
Text Notes 1725 5400 0    59   ~ 0
Headset Jack
Text Notes 15600 8900 0    85   ~ 0
1.0
Text Notes 12600 8500 0    85   ~ 0
Certified open hardware, UID - IN000007
Text GLabel 14500 3600 2    50   BiDi ~ 0
3.3V
Text GLabel 14500 3400 2    50   BiDi ~ 0
5V
Text GLabel 14500 3500 2    50   BiDi ~ 0
5V
Wire Wire Line
	3700 5000 6900 5000
Wire Wire Line
	15200 2800 15200 3700
Wire Wire Line
	7400 7850 7400 8050
$Comp
L Connector:TestPoint TP1
U 1 1 5D5AEE64
P 9450 5600
F 0 "TP1" V 9404 5788 50  0000 L CNN
F 1 "SCLK" V 9495 5788 50  0000 L CNN
F 2 "TestPoint:TestPoint_Pad_D1.0mm" H 9650 5600 50  0001 C CNN
F 3 "~" H 9650 5600 50  0001 C CNN
	1    9450 5600
	0    1    1    0   
$EndComp
$Comp
L Connector:TestPoint TP2
U 1 1 5D5B28C6
P 9450 5900
F 0 "TP2" V 9404 6088 50  0000 L CNN
F 1 "MISO" V 9495 6088 50  0000 L CNN
F 2 "TestPoint:TestPoint_Pad_D1.0mm" H 9650 5900 50  0001 C CNN
F 3 "~" H 9650 5900 50  0001 C CNN
	1    9450 5900
	0    1    1    0   
$EndComp
Wire Wire Line
	9300 5900 9450 5900
$Comp
L Connector:TestPoint TP3
U 1 1 5D60402C
P 6800 4600
F 0 "TP3" V 6800 4900 50  0000 C CNN
F 1 "IN3_R" V 6700 4750 50  0000 C CNN
F 2 "TestPoint:TestPoint_Pad_D1.0mm" H 7000 4600 50  0001 C CNN
F 3 "~" H 7000 4600 50  0001 C CNN
	1    6800 4600
	0    -1   -1   0   
$EndComp
Wire Wire Line
	10800 1800 10800 1950
Wire Wire Line
	10800 2250 10800 2400
$Comp
L AudioSense-Pi-eagle-import:C-EUC1206 C1
U 1 1 1D2E940C
P 3000 7100
F 0 "C1" H 3060 7115 59  0000 L BNN
F 1 "0.047uF" H 3060 6915 59  0000 L BNN
F 2 "Capacitor_SMD:C_0805_2012Metric_Pad1.15x1.40mm_HandSolder" H 3000 7100 50  0001 C CNN
F 3 "" H 3000 7100 50  0001 C CNN
F 4 "CAP CER 0.047UF 10V X7R 1206 " H 3000 7100 59  0001 L BNN "DESCRIPTION"
F 5 "AVX Corporation " H 3000 7100 59  0001 L BNN "MANUFACTURER"
F 6 "1206ZC473KAT2A " H 3000 7100 59  0001 L BNN "MANUFACTURER_PART_NUMBER"
F 7 "1206" H 3000 7100 59  0001 L BNN "PACKAGE"
	1    3000 7100
	1    0    0    -1  
$EndComp
Wire Wire Line
	8400 7000 8400 7100
Wire Wire Line
	8400 7100 8500 7100
Connection ~ 8500 7100
Wire Wire Line
	8500 7100 8500 7000
Wire Wire Line
	7800 7000 7800 7100
Wire Wire Line
	7800 7100 7700 7100
Connection ~ 7700 7100
Wire Wire Line
	7700 7100 7700 7000
$Comp
L Connector:TestPoint TP4
U 1 1 5D6AD5BF
P 6800 6000
F 0 "TP4" V 6800 6300 50  0000 C CNN
F 1 "GPIO" V 6700 6150 50  0000 C CNN
F 2 "TestPoint:TestPoint_Pad_D1.0mm" H 7000 6000 50  0001 C CNN
F 3 "~" H 7000 6000 50  0001 C CNN
	1    6800 6000
	0    -1   -1   0   
$EndComp
$Comp
L AudioSense-Pi-eagle-import:AGND #AGND011
U 1 1 3370E11B
P 6400 9600
F 0 "#AGND011" H 6400 9600 50  0001 C CNN
F 1 "AGND" H 6400 9590 59  0000 C TNN
F 2 "" H 6400 9600 50  0001 C CNN
F 3 "" H 6400 9600 50  0001 C CNN
	1    6400 9600
	1    0    0    -1  
$EndComp
Wire Wire Line
	8300 8650 8700 8650
NoConn ~ 13200 3700
NoConn ~ 13200 3800
NoConn ~ 13200 4000
NoConn ~ 13200 4100
NoConn ~ 13200 4200
NoConn ~ 13200 4300
NoConn ~ 13200 4400
NoConn ~ 14400 3900
NoConn ~ 14400 4000
NoConn ~ 14400 4100
NoConn ~ 14400 4200
NoConn ~ 14400 4300
NoConn ~ 13200 4600
NoConn ~ 13200 4700
NoConn ~ 13200 4900
NoConn ~ 13200 5000
NoConn ~ 13200 5100
NoConn ~ 13200 5200
NoConn ~ 13200 5300
NoConn ~ 13200 5500
NoConn ~ 13200 5600
NoConn ~ 11000 6900
Wire Wire Line
	14400 3400 14500 3400
Wire Wire Line
	14400 3500 14500 3500
Wire Wire Line
	14400 3600 14500 3600
$Comp
L Connector:TestPoint TP9
U 1 1 5D885315
P 12100 4700
F 0 "TP9" H 12158 4818 50  0000 L CNN
F 1 "MCLK" H 12158 4727 50  0000 L CNN
F 2 "TestPoint:TestPoint_Pad_D1.0mm" H 12300 4700 50  0001 C CNN
F 3 "~" H 12300 4700 50  0001 C CNN
	1    12100 4700
	1    0    0    -1  
$EndComp
Wire Wire Line
	12100 4700 12100 4800
Connection ~ 12100 4800
$Comp
L Connector:TestPoint TP8
U 1 1 5D8984E1
P 6400 9100
F 0 "TP8" H 6458 9218 50  0000 L CNN
F 1 "AGND" H 6458 9127 50  0000 L CNN
F 2 "TestPoint:TestPoint_THTPad_D2.0mm_Drill1.0mm" H 6600 9100 50  0001 C CNN
F 3 "~" H 6600 9100 50  0001 C CNN
	1    6400 9100
	1    0    0    -1  
$EndComp
$Comp
L Connector:TestPoint TP7
U 1 1 5D898B73
P 5850 9100
F 0 "TP7" H 5908 9218 50  0000 L CNN
F 1 "DGND" H 5908 9127 50  0000 L CNN
F 2 "TestPoint:TestPoint_THTPad_D2.0mm_Drill1.0mm" H 6050 9100 50  0001 C CNN
F 3 "~" H 6050 9100 50  0001 C CNN
	1    5850 9100
	1    0    0    -1  
$EndComp
Wire Wire Line
	5850 9100 5850 9500
Wire Wire Line
	6400 9100 6400 9500
$Comp
L Connector:TestPoint TP6
U 1 1 5D935B01
P 6400 8550
F 0 "TP6" H 6342 8576 50  0000 R CNN
F 1 "3V3A1" H 6342 8667 50  0000 R CNN
F 2 "TestPoint:TestPoint_THTPad_D2.0mm_Drill1.0mm" H 6600 8550 50  0001 C CNN
F 3 "~" H 6600 8550 50  0001 C CNN
	1    6400 8550
	-1   0    0    1   
$EndComp
$Comp
L Connector:TestPoint TP5
U 1 1 5D93660A
P 5850 8550
F 0 "TP5" H 5792 8576 50  0000 R CNN
F 1 "3V3" H 5792 8667 50  0000 R CNN
F 2 "TestPoint:TestPoint_THTPad_D2.0mm_Drill1.0mm" H 6050 8550 50  0001 C CNN
F 3 "~" H 6050 8550 50  0001 C CNN
	1    5850 8550
	-1   0    0    1   
$EndComp
Wire Wire Line
	5850 8550 5850 8300
$Comp
L power:+3.3VA #PWR0101
U 1 1 5D96ED0D
P 6400 8100
F 0 "#PWR0101" H 6400 7950 50  0001 C CNN
F 1 "+3.3VA" H 6415 8273 50  0000 C CNN
F 2 "" H 6400 8100 50  0001 C CNN
F 3 "" H 6400 8100 50  0001 C CNN
	1    6400 8100
	1    0    0    -1  
$EndComp
Wire Wire Line
	6400 8100 6400 8550
Wire Wire Line
	10700 6100 10700 6200
Wire Wire Line
	10700 6600 10700 6700
Text GLabel 5900 8300 2    54   BiDi ~ 0
3.3V
Wire Wire Line
	5900 8300 5850 8300
Connection ~ 5850 8300
Wire Wire Line
	5850 8300 5850 8100
Wire Wire Line
	14400 4700 15100 4700
Wire Wire Line
	15100 4700 15100 2900
Wire Wire Line
	15100 2900 11700 2900
Wire Wire Line
	11700 2900 11700 3800
$Comp
L Device:LED PWR1
U 1 1 5D9C302C
P 10800 2100
F 0 "PWR1" V 10839 1982 50  0000 R CNN
F 1 "LED" V 10748 1982 50  0000 R CNN
F 2 "LED_SMD:LED_0805_2012Metric_Pad1.15x1.40mm_HandSolder" H 10800 2100 50  0001 C CNN
F 3 "~" H 10800 2100 50  0001 C CNN
	1    10800 2100
	0    -1   -1   0   
$EndComp
$Comp
L power:+3.3VA #PWR0102
U 1 1 5DBE8DA4
P 9600 2050
F 0 "#PWR0102" H 9600 1900 50  0001 C CNN
F 1 "+3.3VA" H 9615 2223 50  0000 C CNN
F 2 "" H 9600 2050 50  0001 C CNN
F 3 "" H 9600 2050 50  0001 C CNN
	1    9600 2050
	1    0    0    -1  
$EndComp
Wire Wire Line
	9600 2050 9600 2200
$Comp
L power:+3.3VA #PWR0103
U 1 1 5DC2EBE2
P 8700 7850
F 0 "#PWR0103" H 8700 7700 50  0001 C CNN
F 1 "+3.3VA" H 8715 8023 50  0000 C CNN
F 2 "" H 8700 7850 50  0001 C CNN
F 3 "" H 8700 7850 50  0001 C CNN
	1    8700 7850
	1    0    0    -1  
$EndComp
Wire Wire Line
	8700 7850 8700 8050
$Comp
L dk_Barrel-Audio-Connectors:SJ-3523-SMT-TR CON1
U 1 1 5D5C66C1
P 1950 2400
F 0 "CON1" H 2008 2787 60  0000 C CNN
F 1 "SJ-3523-SMT-TR" H 2008 2681 60  0000 C CNN
F 2 "digikey-footprints:Switch_Slide_11.6x4mm_SJ-3523-SMT" H 2150 2600 60  0001 L CNN
F 3 "https://www.cui.com/product/resource/digikeypdf/sj-352x-smt_series.pdf" H 2150 2700 60  0001 L CNN
F 4 "CP-3523SJCT-ND" H 2150 2800 60  0001 L CNN "Digi-Key_PN"
F 5 "SJ-3523-SMT-TR" H 2150 2900 60  0001 L CNN "MPN"
F 6 "Connectors, Interconnects" H 2150 3000 60  0001 L CNN "Category"
F 7 "Barrel - Audio Connectors" H 2150 3100 60  0001 L CNN "Family"
F 8 "https://www.cui.com/product/resource/digikeypdf/sj-352x-smt_series.pdf" H 2150 3200 60  0001 L CNN "DK_Datasheet_Link"
F 9 "/product-detail/en/cui-inc/SJ-3523-SMT-TR/CP-3523SJCT-ND/669704" H 2150 3300 60  0001 L CNN "DK_Detail_Page"
F 10 "CONN JACK STEREO 3.5MM SMD R/A" H 2150 3400 60  0001 L CNN "Description"
F 11 "CUI Inc." H 2150 3500 60  0001 L CNN "Manufacturer"
F 12 "Active" H 2150 3600 60  0001 L CNN "Status"
	1    1950 2400
	1    0    0    -1  
$EndComp
Wire Wire Line
	3900 2400 5800 2400
Wire Wire Line
	2350 2500 2700 2500
$Comp
L dk_Barrel-Audio-Connectors:SJ-3523-SMT-TR CON2
U 1 1 5D6210AD
P 1950 3400
F 0 "CON2" H 2008 3787 60  0000 C CNN
F 1 "SJ-3523-SMT-TR" H 2008 3681 60  0000 C CNN
F 2 "digikey-footprints:Switch_Slide_11.6x4mm_SJ-3523-SMT" H 2150 3600 60  0001 L CNN
F 3 "https://www.cui.com/product/resource/digikeypdf/sj-352x-smt_series.pdf" H 2150 3700 60  0001 L CNN
F 4 "CP-3523SJCT-ND" H 2150 3800 60  0001 L CNN "Digi-Key_PN"
F 5 "SJ-3523-SMT-TR" H 2150 3900 60  0001 L CNN "MPN"
F 6 "Connectors, Interconnects" H 2150 4000 60  0001 L CNN "Category"
F 7 "Barrel - Audio Connectors" H 2150 4100 60  0001 L CNN "Family"
F 8 "https://www.cui.com/product/resource/digikeypdf/sj-352x-smt_series.pdf" H 2150 4200 60  0001 L CNN "DK_Datasheet_Link"
F 9 "/product-detail/en/cui-inc/SJ-3523-SMT-TR/CP-3523SJCT-ND/669704" H 2150 4300 60  0001 L CNN "DK_Detail_Page"
F 10 "CONN JACK STEREO 3.5MM SMD R/A" H 2150 4400 60  0001 L CNN "Description"
F 11 "CUI Inc." H 2150 4500 60  0001 L CNN "Manufacturer"
F 12 "Active" H 2150 4600 60  0001 L CNN "Status"
	1    1950 3400
	1    0    0    -1  
$EndComp
Wire Wire Line
	2350 3500 2600 3500
$Comp
L dk_Barrel-Audio-Connectors:SJ-3523-SMT-TR CON3
U 1 1 5D67AA80
P 1950 6800
F 0 "CON3" H 2008 7187 60  0000 C CNN
F 1 "SJ-3523-SMT-TR" H 2008 7081 60  0000 C CNN
F 2 "digikey-footprints:Switch_Slide_11.6x4mm_SJ-3523-SMT" H 2150 7000 60  0001 L CNN
F 3 "https://www.cui.com/product/resource/digikeypdf/sj-352x-smt_series.pdf" H 2150 7100 60  0001 L CNN
F 4 "CP-3523SJCT-ND" H 2150 7200 60  0001 L CNN "Digi-Key_PN"
F 5 "SJ-3523-SMT-TR" H 2150 7300 60  0001 L CNN "MPN"
F 6 "Connectors, Interconnects" H 2150 7400 60  0001 L CNN "Category"
F 7 "Barrel - Audio Connectors" H 2150 7500 60  0001 L CNN "Family"
F 8 "https://www.cui.com/product/resource/digikeypdf/sj-352x-smt_series.pdf" H 2150 7600 60  0001 L CNN "DK_Datasheet_Link"
F 9 "/product-detail/en/cui-inc/SJ-3523-SMT-TR/CP-3523SJCT-ND/669704" H 2150 7700 60  0001 L CNN "DK_Detail_Page"
F 10 "CONN JACK STEREO 3.5MM SMD R/A" H 2150 7800 60  0001 L CNN "Description"
F 11 "CUI Inc." H 2150 7900 60  0001 L CNN "Manufacturer"
F 12 "Active" H 2150 8000 60  0001 L CNN "Status"
	1    1950 6800
	1    0    0    -1  
$EndComp
Wire Wire Line
	2350 6900 2600 6900
Wire Wire Line
	3900 2100 5900 2100
Wire Wire Line
	5800 3800 5800 2400
Wire Wire Line
	5900 2100 5900 3700
Wire Wire Line
	5600 3400 5600 4100
Wire Wire Line
	3800 3400 5600 3400
Wire Wire Line
	5700 4000 5700 3100
Wire Wire Line
	3800 3100 5700 3100
Wire Wire Line
	5900 5400 6900 5400
Wire Wire Line
	5900 5400 5900 6500
Wire Wire Line
	6900 5500 6000 5500
Wire Wire Line
	6000 5500 6000 6800
Wire Wire Line
	2350 2400 3100 2400
Wire Wire Line
	3100 2400 3100 2100
Wire Wire Line
	3100 2100 3600 2100
Wire Wire Line
	3600 2400 3200 2400
Wire Wire Line
	2350 2300 3200 2300
Wire Wire Line
	3200 2300 3200 2400
Wire Wire Line
	2350 3300 3400 3300
Wire Wire Line
	3400 3300 3400 3400
Connection ~ 3400 3400
Wire Wire Line
	2350 3400 2600 3400
Wire Wire Line
	2600 3400 2600 3100
Wire Wire Line
	2350 6700 3400 6700
Wire Wire Line
	3400 6700 3400 6800
Connection ~ 3400 6800
Wire Wire Line
	2450 6500 2450 6800
Wire Wire Line
	2450 6800 2350 6800
$EndSCHEMATC
